<svg width="361" height="197" viewBox="0 0 361 197" fill="none" xmlns="http://www.w3.org/2000/svg">
<path d="M300.433 171.723C288.22 171.723 278.244 161.785 278.244 149.534C278.244 137.283 288.182 127.345 300.433 127.345C312.684 127.345 322.622 137.283 322.622 149.534C322.622 161.785 312.684 171.723 300.433 171.723ZM300.433 128.521C288.826 128.521 279.382 137.966 279.382 149.572C279.382 161.178 288.826 170.623 300.433 170.623C312.039 170.623 321.484 161.178 321.484 149.572C321.484 137.966 312.039 128.521 300.433 128.521Z" fill="#4B5364"/>
<path d="M300.433 165.162C291.823 165.162 284.806 158.145 284.806 149.535C284.806 140.925 291.823 133.908 300.433 133.908C309.043 133.908 316.06 140.925 316.06 149.535C316.06 158.183 309.043 165.162 300.433 165.162ZM300.433 135.084C292.43 135.084 285.944 141.569 285.944 149.573C285.944 157.576 292.43 164.062 300.433 164.062C308.436 164.062 314.922 157.576 314.922 149.573C314.922 141.569 308.436 135.084 300.433 135.084Z" fill="#4B5364"/>
<path d="M300.433 160.571C294.364 160.571 289.396 155.641 289.396 149.534C289.396 143.465 294.326 138.496 300.433 138.496C306.502 138.496 311.47 143.427 311.47 149.534C311.47 155.641 306.54 160.571 300.433 160.571ZM300.433 138.914C294.554 138.914 289.775 143.693 289.775 149.572C289.775 155.451 294.554 160.23 300.433 160.23C306.312 160.23 311.091 155.451 311.091 149.572C311.091 143.693 306.312 138.914 300.433 138.914Z" fill="#4B5364"/>
<path d="M300.433 152.986C298.537 152.986 297.019 151.468 297.019 149.572C297.019 147.675 298.537 146.158 300.433 146.158C302.33 146.158 303.847 147.675 303.847 149.572C303.847 151.468 302.33 152.986 300.433 152.986ZM300.433 146.538C298.764 146.538 297.399 147.903 297.399 149.572C297.399 151.241 298.764 152.606 300.433 152.606C302.102 152.606 303.467 151.241 303.467 149.572C303.467 147.903 302.102 146.538 300.433 146.538Z" fill="#4B5364"/>
<path d="M300.433 143.2C299.826 143.2 299.295 142.707 299.295 142.062C299.295 141.455 299.788 140.924 300.433 140.924C301.078 140.924 301.571 141.418 301.571 142.062C301.571 142.707 301.078 143.2 300.433 143.2ZM300.433 141.304C300.016 141.304 299.674 141.645 299.674 142.062C299.674 142.48 300.016 142.821 300.433 142.821C300.85 142.821 301.192 142.48 301.192 142.062C301.192 141.645 300.85 141.304 300.433 141.304Z" fill="#4B5364"/>
<path d="M300.433 158.182C299.826 158.182 299.295 157.689 299.295 157.044C299.295 156.399 299.788 155.906 300.433 155.906C301.078 155.906 301.571 156.399 301.571 157.044C301.571 157.689 301.078 158.182 300.433 158.182ZM300.433 156.285C300.016 156.285 299.674 156.627 299.674 157.044C299.674 157.461 300.016 157.803 300.433 157.803C300.85 157.803 301.192 157.461 301.192 157.044C301.192 156.627 300.85 156.285 300.433 156.285Z" fill="#4B5364"/>
<path d="M296.716 144.224C296.337 144.224 295.957 144.034 295.73 143.655C295.426 143.124 295.616 142.403 296.147 142.1C296.678 141.797 297.399 141.986 297.702 142.517C298.006 143.048 297.816 143.769 297.285 144.072C297.095 144.148 296.906 144.224 296.716 144.224ZM296.716 142.328C296.602 142.328 296.45 142.366 296.337 142.441C295.995 142.631 295.844 143.124 296.071 143.465C296.299 143.807 296.754 143.959 297.095 143.731C297.437 143.541 297.588 143.048 297.361 142.707C297.209 142.441 296.944 142.328 296.716 142.328Z" fill="#4B5364"/>
<path d="M304.188 157.158C304.074 157.158 303.999 157.158 303.885 157.12C303.581 157.044 303.354 156.854 303.202 156.589C303.05 156.323 303.012 156.02 303.088 155.717C303.164 155.413 303.354 155.186 303.619 155.034C303.885 154.882 304.188 154.844 304.492 154.92C304.795 154.996 305.023 155.186 305.174 155.451C305.326 155.717 305.364 156.02 305.288 156.323C305.212 156.627 305.023 156.854 304.757 157.006C304.567 157.12 304.378 157.158 304.188 157.158ZM304.188 155.299C304.074 155.299 303.923 155.337 303.809 155.413C303.619 155.527 303.505 155.679 303.468 155.868C303.43 156.058 303.43 156.248 303.543 156.437C303.657 156.627 303.809 156.741 303.999 156.779C304.188 156.817 304.378 156.817 304.567 156.703C304.757 156.589 304.871 156.437 304.909 156.248C304.947 156.058 304.947 155.868 304.833 155.679C304.719 155.489 304.567 155.375 304.378 155.337C304.302 155.299 304.264 155.299 304.188 155.299Z" fill="#4B5364"/>
<path d="M293.947 146.955C293.757 146.955 293.568 146.917 293.378 146.803C292.847 146.5 292.657 145.779 292.961 145.248C293.264 144.717 293.985 144.527 294.516 144.831C295.047 145.134 295.237 145.855 294.933 146.386C294.744 146.727 294.364 146.955 293.947 146.955ZM293.985 145.058C293.719 145.058 293.454 145.21 293.34 145.438C293.15 145.779 293.264 146.272 293.606 146.462C293.947 146.651 294.44 146.538 294.63 146.196C294.819 145.855 294.706 145.362 294.364 145.172C294.213 145.096 294.099 145.058 293.985 145.058Z" fill="#4B5364"/>
<path d="M306.919 154.427C306.729 154.427 306.54 154.389 306.35 154.275C306.085 154.124 305.895 153.896 305.819 153.593C305.743 153.289 305.781 152.986 305.933 152.72C306.085 152.455 306.312 152.265 306.616 152.189C306.919 152.113 307.223 152.151 307.488 152.303C307.754 152.455 307.943 152.682 308.019 152.986C308.095 153.289 308.057 153.593 307.905 153.858C307.754 154.124 307.526 154.313 307.223 154.389C307.109 154.427 307.033 154.427 306.919 154.427ZM306.919 152.531C306.843 152.531 306.805 152.531 306.729 152.569C306.54 152.607 306.388 152.758 306.274 152.91C306.161 153.1 306.161 153.289 306.198 153.479C306.236 153.669 306.388 153.82 306.54 153.934C306.729 154.048 306.919 154.048 307.109 154.01C307.298 153.972 307.45 153.82 307.564 153.669C307.678 153.479 307.678 153.289 307.64 153.1C307.602 152.91 307.45 152.758 307.298 152.644C307.185 152.569 307.071 152.531 306.919 152.531Z" fill="#4B5364"/>
<path d="M292.961 150.672C292.354 150.672 291.823 150.179 291.823 149.534C291.823 148.89 292.316 148.397 292.961 148.397C293.568 148.397 294.099 148.89 294.099 149.534C294.099 150.179 293.568 150.672 292.961 150.672ZM292.961 148.814C292.544 148.814 292.202 149.155 292.202 149.572C292.202 149.99 292.544 150.331 292.961 150.331C293.378 150.331 293.72 149.99 293.72 149.572C293.72 149.155 293.378 148.814 292.961 148.814Z" fill="#4B5364"/>
<path d="M307.943 150.672C307.336 150.672 306.805 150.179 306.805 149.534C306.805 148.89 307.298 148.397 307.943 148.397C308.588 148.397 309.081 148.89 309.081 149.534C309.081 150.179 308.55 150.672 307.943 150.672ZM307.943 148.814C307.526 148.814 307.184 149.155 307.184 149.572C307.184 149.99 307.526 150.331 307.943 150.331C308.36 150.331 308.702 149.99 308.702 149.572C308.702 149.155 308.36 148.814 307.943 148.814Z" fill="#4B5364"/>
<path d="M293.985 154.427C293.871 154.427 293.795 154.427 293.682 154.389C293.378 154.313 293.151 154.124 292.999 153.858C292.695 153.327 292.885 152.607 293.416 152.303C293.682 152.151 293.985 152.113 294.288 152.189C294.592 152.265 294.819 152.455 294.971 152.72C295.123 152.986 295.161 153.289 295.085 153.593C295.009 153.896 294.819 154.124 294.554 154.275C294.364 154.389 294.175 154.427 293.985 154.427ZM293.947 152.531C293.833 152.531 293.682 152.569 293.568 152.644C293.226 152.834 293.075 153.327 293.302 153.669C293.416 153.858 293.568 153.972 293.757 154.01C293.947 154.048 294.137 154.048 294.326 153.934C294.516 153.82 294.63 153.669 294.668 153.479C294.706 153.289 294.706 153.1 294.592 152.91C294.478 152.72 294.326 152.607 294.137 152.569C294.099 152.569 294.023 152.531 293.947 152.531Z" fill="#4B5364"/>
<path d="M306.919 146.956C306.54 146.956 306.16 146.766 305.933 146.387C305.629 145.856 305.819 145.135 306.35 144.831C306.616 144.68 306.919 144.642 307.222 144.718C307.526 144.794 307.753 144.983 307.905 145.249C308.057 145.514 308.095 145.818 308.019 146.121C307.943 146.425 307.753 146.652 307.488 146.804C307.298 146.88 307.109 146.956 306.919 146.956ZM306.54 145.173C306.198 145.362 306.047 145.856 306.274 146.197C306.464 146.538 306.957 146.69 307.298 146.462C307.488 146.349 307.602 146.197 307.64 146.007C307.678 145.818 307.678 145.628 307.564 145.438C307.45 145.249 307.298 145.135 307.109 145.097C306.919 145.021 306.729 145.059 306.54 145.173Z" fill="#4B5364"/>
<path d="M296.716 157.158C296.526 157.158 296.337 157.12 296.147 157.006C295.882 156.855 295.692 156.627 295.616 156.324C295.54 156.02 295.578 155.717 295.73 155.451C296.033 154.92 296.754 154.731 297.285 155.034C297.816 155.337 298.006 156.058 297.702 156.589C297.55 156.855 297.323 157.044 297.019 157.12C296.906 157.158 296.792 157.158 296.716 157.158ZM296.033 155.641C295.919 155.831 295.919 156.02 295.957 156.21C295.995 156.399 296.147 156.551 296.299 156.665C296.488 156.779 296.678 156.779 296.868 156.741C297.057 156.703 297.209 156.551 297.323 156.399C297.513 156.058 297.399 155.565 297.057 155.375C296.716 155.186 296.261 155.3 296.033 155.641Z" fill="#4B5364"/>
<path d="M304.188 144.224C303.999 144.224 303.809 144.186 303.619 144.072C303.354 143.921 303.164 143.693 303.088 143.39C303.012 143.086 303.05 142.783 303.202 142.517C303.505 141.986 304.226 141.797 304.757 142.1C305.023 142.252 305.212 142.479 305.288 142.783C305.364 143.086 305.326 143.39 305.174 143.655C305.023 143.921 304.795 144.11 304.492 144.186C304.378 144.186 304.264 144.224 304.188 144.224ZM304.188 142.328C303.923 142.328 303.657 142.479 303.543 142.707C303.43 142.897 303.43 143.086 303.468 143.276C303.505 143.465 303.657 143.617 303.809 143.731C303.999 143.845 304.188 143.845 304.378 143.807C304.567 143.769 304.719 143.617 304.833 143.465C304.947 143.276 304.947 143.086 304.909 142.897C304.871 142.707 304.719 142.555 304.567 142.441C304.454 142.366 304.302 142.328 304.188 142.328Z" fill="#4B5364"/>
<path d="M246.611 171.723C234.398 171.723 224.422 161.785 224.422 149.534C224.422 137.283 234.36 127.345 246.611 127.345C258.862 127.345 268.8 137.283 268.8 149.534C268.8 161.785 258.824 171.723 246.611 171.723ZM246.611 128.521C235.005 128.521 225.56 137.966 225.56 149.572C225.56 161.178 235.005 170.623 246.611 170.623C258.217 170.623 267.662 161.178 267.662 149.572C267.662 137.966 258.217 128.521 246.611 128.521Z" fill="#4B5364"/>
<path d="M246.611 165.162C238.001 165.162 230.984 158.145 230.984 149.535C230.984 140.925 238.001 133.908 246.611 133.908C255.221 133.908 262.238 140.925 262.238 149.535C262.238 158.183 255.221 165.162 246.611 165.162ZM246.611 135.084C238.608 135.084 232.122 141.569 232.122 149.573C232.122 157.576 238.608 164.062 246.611 164.062C254.614 164.062 261.1 157.576 261.1 149.573C261.1 141.569 254.614 135.084 246.611 135.084Z" fill="#4B5364"/>
<path d="M246.611 160.571C240.542 160.571 235.573 155.641 235.573 149.534C235.573 143.465 240.504 138.496 246.611 138.496C252.68 138.496 257.648 143.427 257.648 149.534C257.648 155.641 252.718 160.571 246.611 160.571ZM246.611 138.914C240.732 138.914 235.953 143.693 235.953 149.572C235.953 155.451 240.732 160.23 246.611 160.23C252.49 160.23 257.269 155.451 257.269 149.572C257.269 143.693 252.49 138.914 246.611 138.914Z" fill="#4B5364"/>
<path d="M246.611 152.986C244.715 152.986 243.197 151.468 243.197 149.572C243.197 147.675 244.715 146.158 246.611 146.158C248.508 146.158 250.025 147.675 250.025 149.572C250.025 151.468 248.508 152.986 246.611 152.986ZM246.611 146.538C244.942 146.538 243.577 147.903 243.577 149.572C243.577 151.241 244.942 152.606 246.611 152.606C248.28 152.606 249.645 151.241 249.645 149.572C249.645 147.903 248.28 146.538 246.611 146.538Z" fill="#4B5364"/>
<path d="M246.611 143.2C246.004 143.2 245.473 142.707 245.473 142.062C245.473 141.455 245.966 140.924 246.611 140.924C247.256 140.924 247.749 141.418 247.749 142.062C247.749 142.707 247.256 143.2 246.611 143.2ZM246.611 141.304C246.194 141.304 245.852 141.645 245.852 142.062C245.852 142.48 246.194 142.821 246.611 142.821C247.028 142.821 247.37 142.48 247.37 142.062C247.37 141.645 247.028 141.304 246.611 141.304Z" fill="#4B5364"/>
<path d="M246.611 158.182C246.004 158.182 245.473 157.689 245.473 157.044C245.473 156.399 245.966 155.906 246.611 155.906C247.256 155.906 247.749 156.399 247.749 157.044C247.749 157.689 247.256 158.182 246.611 158.182ZM246.611 156.285C246.194 156.285 245.852 156.627 245.852 157.044C245.852 157.461 246.194 157.803 246.611 157.803C247.028 157.803 247.37 157.461 247.37 157.044C247.37 156.627 247.028 156.285 246.611 156.285Z" fill="#4B5364"/>
<path d="M242.894 144.224C242.515 144.224 242.135 144.034 241.908 143.655C241.604 143.124 241.794 142.403 242.325 142.1C242.856 141.797 243.577 141.986 243.88 142.517C244.184 143.048 243.994 143.769 243.463 144.072C243.273 144.148 243.084 144.224 242.894 144.224ZM242.856 142.328C242.742 142.328 242.591 142.366 242.477 142.441C242.135 142.631 241.984 143.124 242.211 143.465C242.439 143.807 242.894 143.959 243.235 143.731C243.577 143.541 243.728 143.048 243.501 142.707C243.387 142.441 243.122 142.328 242.856 142.328Z" fill="#4B5364"/>
<path d="M250.366 157.158C250.252 157.158 250.177 157.158 250.063 157.12C249.759 157.044 249.532 156.855 249.38 156.589C249.077 156.058 249.266 155.337 249.797 155.034C250.328 154.731 251.049 154.92 251.352 155.451C251.504 155.717 251.542 156.02 251.466 156.324C251.39 156.627 251.201 156.855 250.935 157.006C250.745 157.12 250.556 157.158 250.366 157.158ZM250.366 155.3C250.252 155.3 250.101 155.337 249.987 155.413C249.646 155.603 249.494 156.096 249.721 156.437C249.835 156.627 249.987 156.741 250.177 156.779C250.366 156.817 250.556 156.817 250.745 156.703C250.935 156.589 251.049 156.437 251.087 156.248C251.125 156.058 251.125 155.868 251.011 155.679C250.859 155.413 250.632 155.3 250.366 155.3Z" fill="#4B5364"/>
<path d="M240.125 146.955C239.935 146.955 239.746 146.917 239.556 146.803C239.025 146.5 238.836 145.779 239.139 145.248C239.442 144.717 240.163 144.527 240.694 144.831C241.225 145.134 241.415 145.855 241.111 146.386C240.922 146.727 240.542 146.955 240.125 146.955ZM240.125 145.058C239.86 145.058 239.594 145.21 239.48 145.438C239.291 145.779 239.404 146.272 239.746 146.462C240.087 146.651 240.58 146.538 240.77 146.196C240.96 145.855 240.846 145.362 240.504 145.172C240.391 145.096 240.277 145.058 240.125 145.058Z" fill="#4B5364"/>
<path d="M253.097 154.427C252.908 154.427 252.718 154.389 252.528 154.275C252.263 154.124 252.073 153.896 251.997 153.593C251.921 153.289 251.959 152.986 252.111 152.72C252.263 152.455 252.49 152.265 252.794 152.189C253.097 152.113 253.401 152.151 253.666 152.303C254.197 152.607 254.387 153.327 254.083 153.858C253.932 154.124 253.704 154.313 253.401 154.389C253.287 154.427 253.211 154.427 253.097 154.427ZM253.097 152.531C253.021 152.531 252.983 152.531 252.908 152.569C252.718 152.607 252.566 152.758 252.452 152.91C252.339 153.1 252.339 153.289 252.377 153.479C252.414 153.669 252.566 153.82 252.718 153.934C252.908 154.048 253.097 154.048 253.287 154.01C253.477 153.972 253.628 153.82 253.742 153.669C253.932 153.327 253.818 152.834 253.477 152.644C253.363 152.569 253.211 152.531 253.097 152.531Z" fill="#4B5364"/>
<path d="M239.139 150.672C238.532 150.672 238.001 150.179 238.001 149.534C238.001 148.89 238.494 148.397 239.139 148.397C239.784 148.397 240.277 148.89 240.277 149.534C240.277 150.179 239.746 150.672 239.139 150.672ZM239.139 148.814C238.722 148.814 238.381 149.155 238.381 149.572C238.381 149.99 238.722 150.331 239.139 150.331C239.556 150.331 239.898 149.99 239.898 149.572C239.898 149.155 239.556 148.814 239.139 148.814Z" fill="#4B5364"/>
<path d="M254.083 150.672C253.476 150.672 252.945 150.179 252.945 149.534C252.945 148.89 253.438 148.397 254.083 148.397C254.728 148.397 255.221 148.89 255.221 149.534C255.221 150.179 254.728 150.672 254.083 150.672ZM254.083 148.814C253.666 148.814 253.325 149.155 253.325 149.572C253.325 149.99 253.666 150.331 254.083 150.331C254.5 150.331 254.842 149.99 254.842 149.572C254.842 149.155 254.5 148.814 254.083 148.814Z" fill="#4B5364"/>
<path d="M240.125 154.427C240.011 154.427 239.935 154.427 239.822 154.389C239.518 154.313 239.291 154.124 239.139 153.858C238.836 153.327 239.025 152.607 239.556 152.303C239.822 152.151 240.125 152.113 240.429 152.189C240.732 152.265 240.96 152.455 241.111 152.72C241.263 152.986 241.301 153.289 241.225 153.593C241.149 153.896 240.96 154.124 240.694 154.275C240.542 154.389 240.353 154.427 240.125 154.427ZM240.125 152.531C240.011 152.531 239.86 152.569 239.746 152.644C239.404 152.834 239.253 153.327 239.48 153.669C239.594 153.858 239.746 153.972 239.935 154.01C240.125 154.048 240.315 154.048 240.504 153.934C240.694 153.82 240.808 153.669 240.846 153.479C240.884 153.289 240.884 153.1 240.77 152.91C240.656 152.72 240.504 152.607 240.315 152.569C240.277 152.569 240.201 152.531 240.125 152.531Z" fill="#4B5364"/>
<path d="M253.097 146.955C252.718 146.955 252.339 146.765 252.111 146.386C251.808 145.855 251.997 145.134 252.528 144.831C253.059 144.527 253.78 144.717 254.083 145.248C254.387 145.779 254.197 146.5 253.666 146.803C253.476 146.879 253.287 146.955 253.097 146.955ZM252.718 145.172C252.377 145.362 252.225 145.855 252.452 146.196C252.642 146.538 253.135 146.689 253.476 146.462C253.818 146.272 253.97 145.779 253.742 145.438C253.552 145.096 253.097 144.945 252.718 145.172Z" fill="#4B5364"/>
<path d="M242.856 157.158C242.667 157.158 242.477 157.12 242.287 157.006C242.022 156.855 241.832 156.627 241.756 156.324C241.68 156.02 241.718 155.717 241.87 155.451C242.173 154.92 242.894 154.731 243.425 155.034C243.956 155.337 244.146 156.058 243.842 156.589C243.691 156.855 243.463 157.044 243.16 157.12C243.084 157.158 242.97 157.158 242.856 157.158ZM242.211 155.641C242.098 155.831 242.098 156.02 242.135 156.21C242.173 156.399 242.325 156.551 242.477 156.665C242.667 156.779 242.856 156.779 243.046 156.741C243.235 156.703 243.387 156.551 243.501 156.399C243.691 156.058 243.577 155.565 243.235 155.375C242.894 155.186 242.439 155.3 242.211 155.641Z" fill="#4B5364"/>
<path d="M250.366 144.224C250.177 144.224 249.987 144.186 249.797 144.072C249.266 143.769 249.077 143.048 249.38 142.517C249.683 141.986 250.404 141.797 250.935 142.1C251.466 142.403 251.656 143.124 251.352 143.655C251.125 143.996 250.745 144.224 250.366 144.224ZM249.721 142.707C249.532 143.048 249.646 143.541 249.987 143.731C250.328 143.921 250.821 143.807 251.011 143.465C251.201 143.124 251.087 142.631 250.745 142.441C250.366 142.214 249.911 142.328 249.721 142.707Z" fill="#4B5364"/>
<path d="M149.853 171.723C137.639 171.723 127.664 161.785 127.664 149.534C127.664 137.283 137.601 127.345 149.853 127.345C162.104 127.345 172.041 137.283 172.041 149.534C172.041 161.785 162.066 171.723 149.853 171.723ZM149.853 128.521C138.246 128.521 128.802 137.966 128.802 149.572C128.802 161.178 138.246 170.623 149.853 170.623C161.459 170.623 170.904 161.178 170.904 149.572C170.904 137.966 161.459 128.521 149.853 128.521Z" fill="#4B5364"/>
<path d="M149.853 165.162C141.243 165.162 134.226 158.145 134.226 149.535C134.226 140.925 141.243 133.908 149.853 133.908C158.463 133.908 165.48 140.925 165.48 149.535C165.48 158.183 158.463 165.162 149.853 165.162ZM149.853 135.084C141.85 135.084 135.364 141.569 135.364 149.573C135.364 157.576 141.85 164.062 149.853 164.062C157.856 164.062 164.342 157.576 164.342 149.573C164.342 141.569 157.818 135.084 149.853 135.084Z" fill="#4B5364"/>
<path d="M149.853 160.571C143.784 160.571 138.815 155.641 138.815 149.534C138.815 143.465 143.746 138.496 149.853 138.496C155.922 138.496 160.89 143.427 160.89 149.534C160.89 155.641 155.922 160.571 149.853 160.571ZM149.853 138.914C143.974 138.914 139.195 143.693 139.195 149.572C139.195 155.451 143.974 160.23 149.853 160.23C155.732 160.23 160.511 155.451 160.511 149.572C160.511 143.693 155.732 138.914 149.853 138.914Z" fill="#4B5364"/>
<path d="M149.853 152.986C147.956 152.986 146.439 151.468 146.439 149.572C146.439 147.675 147.956 146.158 149.853 146.158C151.749 146.158 153.267 147.675 153.267 149.572C153.267 151.468 151.749 152.986 149.853 152.986ZM149.853 146.538C148.184 146.538 146.819 147.903 146.819 149.572C146.819 151.241 148.184 152.606 149.853 152.606C151.522 152.606 152.887 151.241 152.887 149.572C152.887 147.903 151.522 146.538 149.853 146.538Z" fill="#4B5364"/>
<path d="M149.853 143.2C149.246 143.2 148.715 142.707 148.715 142.062C148.715 141.455 149.208 140.924 149.853 140.924C150.498 140.924 150.991 141.418 150.991 142.062C150.991 142.707 150.46 143.2 149.853 143.2ZM149.853 141.304C149.436 141.304 149.094 141.645 149.094 142.062C149.094 142.48 149.436 142.821 149.853 142.821C150.27 142.821 150.611 142.48 150.611 142.062C150.611 141.645 150.27 141.304 149.853 141.304Z" fill="#4B5364"/>
<path d="M149.853 158.182C149.246 158.182 148.715 157.689 148.715 157.044C148.715 156.399 149.208 155.906 149.853 155.906C150.498 155.906 150.991 156.399 150.991 157.044C150.991 157.689 150.46 158.182 149.853 158.182ZM149.853 156.285C149.436 156.285 149.094 156.627 149.094 157.044C149.094 157.461 149.436 157.803 149.853 157.803C150.27 157.803 150.611 157.461 150.611 157.044C150.611 156.627 150.27 156.285 149.853 156.285Z" fill="#4B5364"/>
<path d="M146.098 144.224C145.984 144.224 145.908 144.224 145.795 144.186C145.491 144.11 145.264 143.921 145.112 143.655C144.96 143.39 144.922 143.086 144.998 142.783C145.074 142.479 145.264 142.252 145.529 142.1C146.06 141.797 146.781 141.986 147.084 142.517C147.236 142.783 147.274 143.086 147.198 143.39C147.122 143.693 146.932 143.921 146.667 144.072C146.515 144.148 146.288 144.224 146.098 144.224ZM146.098 142.328C145.984 142.328 145.832 142.366 145.719 142.441C145.529 142.555 145.415 142.707 145.377 142.897C145.339 143.086 145.339 143.276 145.453 143.465C145.567 143.655 145.719 143.769 145.908 143.807C146.098 143.845 146.288 143.845 146.477 143.731C146.667 143.617 146.781 143.465 146.819 143.276C146.857 143.086 146.857 142.897 146.743 142.707C146.629 142.441 146.363 142.328 146.098 142.328Z" fill="#4B5364"/>
<path d="M153.608 157.158C153.494 157.158 153.418 157.158 153.305 157.12C153.001 157.044 152.774 156.855 152.622 156.589C152.47 156.324 152.432 156.02 152.508 155.717C152.584 155.413 152.774 155.186 153.039 155.034C153.57 154.731 154.291 154.92 154.594 155.451C154.746 155.717 154.784 156.02 154.708 156.324C154.632 156.627 154.443 156.855 154.177 157.006C153.987 157.12 153.798 157.158 153.608 157.158ZM153.57 155.3C153.456 155.3 153.305 155.337 153.191 155.413C153.001 155.527 152.887 155.679 152.85 155.868C152.812 156.058 152.812 156.248 152.925 156.437C153.039 156.627 153.191 156.741 153.381 156.779C153.57 156.817 153.76 156.817 153.949 156.703C154.139 156.589 154.253 156.437 154.291 156.248C154.329 156.058 154.329 155.868 154.215 155.679C154.101 155.413 153.836 155.3 153.57 155.3Z" fill="#4B5364"/>
<path d="M143.367 146.956C143.177 146.956 142.988 146.918 142.798 146.804C142.533 146.652 142.343 146.425 142.267 146.121C142.191 145.818 142.229 145.514 142.381 145.249C142.533 144.983 142.76 144.794 143.064 144.718C143.367 144.642 143.67 144.68 143.936 144.831C144.201 144.983 144.391 145.211 144.467 145.514C144.543 145.818 144.505 146.121 144.353 146.387C144.126 146.728 143.746 146.956 143.367 146.956ZM143.367 145.059C143.291 145.059 143.253 145.059 143.177 145.097C142.988 145.135 142.836 145.287 142.722 145.438C142.608 145.628 142.608 145.818 142.646 146.007C142.684 146.197 142.836 146.349 142.988 146.462C143.329 146.652 143.822 146.538 144.012 146.197C144.126 146.007 144.126 145.818 144.088 145.628C144.05 145.438 143.898 145.287 143.746 145.173C143.633 145.097 143.519 145.059 143.367 145.059Z" fill="#4B5364"/>
<path d="M156.339 154.427C156.149 154.427 155.96 154.389 155.77 154.275C155.505 154.124 155.315 153.896 155.239 153.593C155.163 153.289 155.201 152.986 155.353 152.72C155.505 152.455 155.732 152.265 156.036 152.189C156.339 152.113 156.643 152.151 156.908 152.303C157.439 152.607 157.629 153.327 157.325 153.858C157.174 154.124 156.946 154.313 156.642 154.389C156.529 154.427 156.415 154.427 156.339 154.427ZM156.339 152.531C156.263 152.531 156.225 152.531 156.149 152.569C155.96 152.607 155.808 152.758 155.694 152.91C155.58 153.1 155.58 153.289 155.618 153.479C155.656 153.669 155.808 153.82 155.96 153.934C156.149 154.048 156.339 154.048 156.529 154.01C156.718 153.972 156.87 153.82 156.984 153.669C157.098 153.479 157.098 153.289 157.06 153.1C157.022 152.91 156.87 152.758 156.718 152.644C156.605 152.569 156.453 152.531 156.339 152.531Z" fill="#4B5364"/>
<path d="M142.381 150.672C141.774 150.672 141.243 150.179 141.243 149.534C141.243 148.89 141.736 148.397 142.381 148.397C143.026 148.397 143.519 148.89 143.519 149.534C143.519 150.179 142.988 150.672 142.381 150.672ZM142.381 148.814C141.964 148.814 141.622 149.155 141.622 149.572C141.622 149.99 141.964 150.331 142.381 150.331C142.798 150.331 143.14 149.99 143.14 149.572C143.14 149.155 142.798 148.814 142.381 148.814Z" fill="#4B5364"/>
<path d="M157.325 150.672C156.718 150.672 156.187 150.179 156.187 149.534C156.187 148.89 156.68 148.397 157.325 148.397C157.97 148.397 158.463 148.89 158.463 149.534C158.463 150.179 157.97 150.672 157.325 150.672ZM157.325 148.814C156.908 148.814 156.567 149.155 156.567 149.572C156.567 149.99 156.908 150.331 157.325 150.331C157.742 150.331 158.084 149.99 158.084 149.572C158.084 149.155 157.742 148.814 157.325 148.814Z" fill="#4B5364"/>
<path d="M143.367 154.427C143.253 154.427 143.177 154.427 143.064 154.389C142.76 154.313 142.532 154.124 142.381 153.858C142.077 153.327 142.267 152.607 142.798 152.303C143.064 152.151 143.367 152.113 143.67 152.189C143.974 152.265 144.201 152.455 144.353 152.72C144.505 152.986 144.543 153.289 144.467 153.593C144.391 153.896 144.201 154.124 143.936 154.275C143.746 154.389 143.557 154.427 143.367 154.427ZM143.367 152.531C143.253 152.531 143.101 152.569 142.988 152.644C142.798 152.758 142.684 152.91 142.646 153.1C142.608 153.289 142.608 153.479 142.722 153.669C142.836 153.858 142.988 153.972 143.177 154.01C143.367 154.048 143.557 154.048 143.746 153.934C143.936 153.82 144.05 153.669 144.088 153.479C144.126 153.289 144.126 153.1 144.012 152.91C143.898 152.72 143.746 152.607 143.557 152.569C143.481 152.569 143.443 152.531 143.367 152.531Z" fill="#4B5364"/>
<path d="M156.339 146.955C156.225 146.955 156.149 146.955 156.036 146.917C155.732 146.841 155.505 146.651 155.353 146.386C155.201 146.12 155.163 145.817 155.239 145.513C155.315 145.21 155.505 144.982 155.77 144.831C156.301 144.527 157.022 144.717 157.325 145.248C157.477 145.513 157.515 145.817 157.439 146.12C157.363 146.424 157.174 146.651 156.908 146.803C156.718 146.879 156.529 146.955 156.339 146.955ZM155.96 145.172C155.77 145.286 155.656 145.438 155.618 145.627C155.58 145.817 155.58 146.007 155.694 146.196C155.808 146.386 155.96 146.5 156.149 146.538C156.339 146.575 156.529 146.575 156.718 146.462C156.908 146.348 157.022 146.196 157.06 146.007C157.098 145.817 157.098 145.627 156.984 145.438C156.756 145.096 156.301 144.945 155.96 145.172Z" fill="#4B5364"/>
<path d="M146.098 157.158C145.908 157.158 145.719 157.12 145.529 157.006C145.264 156.854 145.074 156.627 144.998 156.323C144.922 156.02 144.96 155.717 145.112 155.451C145.264 155.186 145.491 154.996 145.795 154.92C146.098 154.844 146.401 154.882 146.667 155.034C146.932 155.186 147.122 155.413 147.198 155.717C147.274 156.02 147.236 156.323 147.084 156.589C146.932 156.854 146.705 157.044 146.401 157.12C146.288 157.158 146.212 157.158 146.098 157.158ZM146.098 155.299C146.022 155.299 145.984 155.299 145.908 155.337C145.719 155.375 145.567 155.527 145.453 155.679C145.339 155.868 145.339 156.058 145.377 156.248C145.415 156.437 145.567 156.589 145.719 156.703C145.908 156.817 146.098 156.817 146.288 156.779C146.477 156.741 146.629 156.589 146.743 156.437C146.857 156.248 146.857 156.058 146.819 155.868C146.781 155.679 146.629 155.527 146.477 155.413C146.363 155.299 146.25 155.299 146.098 155.299Z" fill="#4B5364"/>
<path d="M153.57 144.224C153.38 144.224 153.191 144.186 153.001 144.072C152.736 143.92 152.546 143.693 152.47 143.389C152.394 143.086 152.432 142.783 152.584 142.517C152.736 142.252 152.963 142.062 153.267 141.986C153.57 141.91 153.874 141.948 154.139 142.1C154.405 142.252 154.594 142.479 154.67 142.783C154.746 143.086 154.708 143.389 154.556 143.655C154.367 143.996 153.987 144.224 153.57 144.224ZM153.608 142.327C153.532 142.327 153.494 142.327 153.418 142.365C153.229 142.403 153.077 142.555 152.963 142.707C152.849 142.896 152.849 143.086 152.887 143.276C152.925 143.465 153.077 143.617 153.229 143.731C153.57 143.92 154.063 143.807 154.253 143.465C154.367 143.276 154.367 143.086 154.329 142.896C154.291 142.707 154.139 142.555 153.987 142.441C153.836 142.365 153.722 142.327 153.608 142.327Z" fill="#4B5364"/>
<path d="M72.0594 171.723C59.8461 171.723 49.8706 161.785 49.8706 149.534C49.8706 137.283 59.8081 127.345 72.0594 127.345C84.3106 127.345 94.2481 137.283 94.2481 149.534C94.2481 161.785 84.3106 171.723 72.0594 171.723ZM72.0594 128.521C60.4529 128.521 51.0085 137.966 51.0085 149.572C51.0085 161.178 60.4529 170.623 72.0594 170.623C83.6658 170.623 93.1102 161.178 93.1102 149.572C93.1102 137.966 83.6658 128.521 72.0594 128.521Z" fill="#4B5364"/>
<path d="M72.0593 165.162C63.4493 165.162 56.4324 158.145 56.4324 149.535C56.4324 140.925 63.4493 133.908 72.0593 133.908C80.6693 133.908 87.6863 140.925 87.6863 149.535C87.6863 158.183 80.7073 165.162 72.0593 165.162ZM72.0593 135.084C64.0562 135.084 57.5703 141.569 57.5703 149.573C57.5703 157.576 64.0562 164.062 72.0593 164.062C80.0625 164.062 86.5484 157.576 86.5484 149.573C86.5484 141.569 80.0625 135.084 72.0593 135.084Z" fill="#4B5364"/>
<path d="M72.0592 160.571C65.9905 160.571 61.0217 155.641 61.0217 149.534C61.0217 143.465 65.9526 138.496 72.0592 138.496C78.1279 138.496 83.0967 143.427 83.0967 149.534C83.0967 155.641 78.1659 160.571 72.0592 160.571ZM72.0592 138.914C66.1801 138.914 61.401 143.693 61.401 149.572C61.401 155.451 66.1801 160.23 72.0592 160.23C77.9383 160.23 82.7174 155.451 82.7174 149.572C82.7174 143.693 77.9383 138.914 72.0592 138.914Z" fill="#4B5364"/>
<path d="M72.0594 152.986C70.1629 152.986 68.6458 151.468 68.6458 149.572C68.6458 147.675 70.1629 146.158 72.0594 146.158C73.9559 146.158 75.4731 147.675 75.4731 149.572C75.4731 151.468 73.9559 152.986 72.0594 152.986ZM72.0594 146.538C70.3905 146.538 69.025 147.903 69.025 149.572C69.025 151.241 70.3905 152.606 72.0594 152.606C73.7283 152.606 75.0938 151.241 75.0938 149.572C75.0938 147.903 73.7662 146.538 72.0594 146.538Z" fill="#4B5364"/>
<path d="M72.0595 143.2C71.4526 143.2 70.9216 142.707 70.9216 142.062C70.9216 141.455 71.4147 140.924 72.0595 140.924C72.7043 140.924 73.1974 141.418 73.1974 142.062C73.1974 142.707 72.7043 143.2 72.0595 143.2ZM72.0595 141.304C71.6423 141.304 71.3009 141.645 71.3009 142.062C71.3009 142.48 71.6423 142.821 72.0595 142.821C72.4767 142.821 72.8181 142.48 72.8181 142.062C72.8181 141.645 72.4767 141.304 72.0595 141.304Z" fill="#4B5364"/>
<path d="M72.0595 158.182C71.4526 158.182 70.9216 157.689 70.9216 157.044C70.9216 156.399 71.4147 155.906 72.0595 155.906C72.7043 155.906 73.1974 156.399 73.1974 157.044C73.1974 157.689 72.7043 158.182 72.0595 158.182ZM72.0595 156.285C71.6423 156.285 71.3009 156.627 71.3009 157.044C71.3009 157.461 71.6423 157.803 72.0595 157.803C72.4767 157.803 72.8181 157.461 72.8181 157.044C72.8181 156.627 72.4767 156.285 72.0595 156.285Z" fill="#4B5364"/>
<path d="M68.3424 144.224C67.9631 144.224 67.5838 144.034 67.3562 143.655C67.0528 143.124 67.2425 142.403 67.7735 142.1C68.3045 141.797 69.0251 141.986 69.3286 142.517C69.632 143.048 69.4424 143.769 68.9114 144.072C68.7217 144.148 68.5321 144.224 68.3424 144.224ZM68.3424 142.328C68.2286 142.328 68.0769 142.366 67.9631 142.441C67.6217 142.631 67.47 143.124 67.6976 143.465C67.9252 143.807 68.3803 143.959 68.7217 143.731C69.0631 143.541 69.2148 143.048 68.9872 142.707C68.8355 142.441 68.6079 142.328 68.3424 142.328Z" fill="#4B5364"/>
<path d="M75.8146 157.158C75.7009 157.158 75.625 157.158 75.5112 157.12C75.2078 157.044 74.9802 156.855 74.8285 156.589C74.6768 156.324 74.6388 156.02 74.7147 155.717C74.7905 155.413 74.9802 155.186 75.2457 155.034C75.7767 154.731 76.4974 154.92 76.8008 155.451C76.9525 155.717 76.9905 156.02 76.9146 156.324C76.8387 156.627 76.6491 156.855 76.3836 157.006C76.1939 157.12 76.0043 157.158 75.8146 157.158ZM75.8146 155.3C75.7009 155.3 75.5491 155.337 75.4353 155.413C75.2457 155.527 75.1319 155.679 75.094 155.868C75.0561 156.058 75.056 156.248 75.1698 156.437C75.2836 156.627 75.4353 156.741 75.625 156.779C75.8146 156.817 76.0043 156.817 76.1939 156.703C76.3836 156.589 76.4974 156.437 76.5353 156.248C76.5732 156.058 76.5732 155.868 76.4594 155.679C76.3456 155.413 76.0801 155.3 75.8146 155.3Z" fill="#4B5364"/>
<path d="M65.6115 146.955C65.4218 146.955 65.2322 146.917 65.0425 146.803C64.5115 146.5 64.3218 145.779 64.6253 145.248C64.9287 144.717 65.6494 144.527 66.1804 144.831C66.7114 145.134 66.901 145.855 66.5976 146.386C66.37 146.727 65.9907 146.955 65.6115 146.955ZM65.6115 145.058C65.3459 145.058 65.0804 145.21 64.9666 145.438C64.777 145.779 64.8908 146.272 65.2322 146.462C65.5735 146.651 66.0666 146.538 66.2562 146.196C66.4459 145.855 66.3321 145.362 65.9907 145.172C65.839 145.096 65.7252 145.058 65.6115 145.058Z" fill="#4B5364"/>
<path d="M78.5456 154.427C78.3559 154.427 78.1663 154.389 77.9767 154.275C77.7111 154.124 77.5215 153.896 77.4456 153.593C77.3698 153.289 77.4077 152.986 77.5594 152.72C77.7112 152.455 77.9387 152.265 78.2422 152.189C78.5456 152.113 78.849 152.151 79.1145 152.303C79.38 152.455 79.5697 152.682 79.6456 152.986C79.7214 153.289 79.6835 153.593 79.5318 153.858C79.38 154.124 79.1525 154.313 78.849 154.389C78.7353 154.427 78.6594 154.427 78.5456 154.427ZM78.5456 152.531C78.4697 152.531 78.4318 152.531 78.3559 152.569C78.1663 152.607 78.0146 152.758 77.9008 152.91C77.787 153.1 77.787 153.289 77.8249 153.479C77.8629 153.669 78.0146 153.82 78.1663 153.934C78.3559 154.048 78.5456 154.048 78.7352 154.01C78.9249 153.972 79.0766 153.82 79.1904 153.669C79.3042 153.479 79.3042 153.289 79.2663 153.1C79.2283 152.91 79.0766 152.758 78.9249 152.644C78.8111 152.569 78.6973 152.531 78.5456 152.531Z" fill="#4B5364"/>
<path d="M64.5873 150.672C63.9805 150.672 63.4495 150.179 63.4495 149.534C63.4495 148.89 63.9425 148.397 64.5873 148.397C65.2321 148.397 65.7252 148.89 65.7252 149.534C65.7252 150.179 65.2321 150.672 64.5873 150.672ZM64.5873 148.814C64.1701 148.814 63.8288 149.155 63.8288 149.572C63.8288 149.99 64.1701 150.331 64.5873 150.331C65.0046 150.331 65.3459 149.99 65.3459 149.572C65.3459 149.155 65.0046 148.814 64.5873 148.814Z" fill="#4B5364"/>
<path d="M79.5695 150.672C78.9627 150.672 78.4316 150.179 78.4316 149.534C78.4316 148.89 78.9247 148.397 79.5695 148.397C80.2143 148.397 80.7074 148.89 80.7074 149.534C80.7074 150.179 80.1764 150.672 79.5695 150.672ZM79.5695 148.814C79.1523 148.814 78.8109 149.155 78.8109 149.572C78.8109 149.99 79.1523 150.331 79.5695 150.331C79.9868 150.331 80.3281 149.99 80.3281 149.572C80.3281 149.155 79.9868 148.814 79.5695 148.814Z" fill="#4B5364"/>
<path d="M65.6115 154.427C65.4977 154.427 65.4218 154.427 65.308 154.389C65.0046 154.313 64.777 154.124 64.6253 153.858C64.3218 153.327 64.5115 152.607 65.0425 152.303C65.308 152.151 65.6114 152.113 65.9149 152.189C66.2183 152.265 66.4459 152.455 66.5976 152.72C66.7493 152.986 66.7873 153.289 66.7114 153.593C66.6355 153.896 66.4459 154.124 66.1804 154.275C65.9907 154.389 65.8011 154.427 65.6115 154.427ZM65.6115 152.531C65.4977 152.531 65.3459 152.569 65.2322 152.644C64.8908 152.834 64.7391 153.327 64.9666 153.669C65.0804 153.858 65.2322 153.972 65.4218 154.01C65.6115 154.048 65.8011 154.048 65.9907 153.934C66.1804 153.82 66.2942 153.669 66.3321 153.479C66.37 153.289 66.37 153.1 66.2562 152.91C66.1425 152.72 65.9907 152.607 65.8011 152.569C65.7252 152.569 65.6494 152.531 65.6115 152.531Z" fill="#4B5364"/>
<path d="M78.5456 146.956C78.1663 146.956 77.787 146.766 77.5594 146.387C77.4077 146.121 77.3698 145.818 77.4456 145.514C77.5215 145.211 77.7111 144.983 77.9767 144.831C78.2422 144.68 78.5456 144.642 78.849 144.718C79.1525 144.794 79.38 144.983 79.5318 145.249C79.6835 145.514 79.7214 145.818 79.6456 146.121C79.5697 146.425 79.38 146.652 79.1145 146.804C78.9628 146.88 78.7352 146.956 78.5456 146.956ZM78.1663 145.173C77.9767 145.287 77.8629 145.438 77.8249 145.628C77.787 145.818 77.787 146.007 77.9008 146.197C78.0904 146.538 78.5835 146.69 78.9249 146.462C79.1145 146.349 79.2283 146.197 79.2663 146.007C79.3042 145.818 79.3042 145.628 79.1904 145.438C79.0766 145.249 78.9249 145.135 78.7352 145.097C78.5456 145.021 78.3559 145.059 78.1663 145.173Z" fill="#4B5364"/>
<path d="M68.3425 157.158C68.1528 157.158 67.9632 157.12 67.7735 157.006C67.508 156.855 67.3184 156.627 67.2425 156.324C67.1667 156.02 67.2046 155.717 67.3563 155.451C67.6597 154.92 68.3804 154.731 68.9114 155.034C69.4424 155.337 69.6321 156.058 69.3286 156.589C69.1769 156.855 68.9494 157.044 68.6459 157.12C68.5321 157.158 68.4183 157.158 68.3425 157.158ZM67.6977 155.641C67.5839 155.831 67.5839 156.02 67.6218 156.21C67.6597 156.399 67.8115 156.551 67.9632 156.665C68.1528 156.779 68.3425 156.779 68.5321 156.741C68.7218 156.703 68.8735 156.551 68.9873 156.399C69.1769 156.058 69.0631 155.565 68.7218 155.375C68.3425 155.186 67.8873 155.3 67.6977 155.641Z" fill="#4B5364"/>
<path d="M75.8146 144.224C75.625 144.224 75.4353 144.186 75.2457 144.072C74.9802 143.921 74.7905 143.693 74.7147 143.39C74.6388 143.086 74.6768 142.783 74.8285 142.517C75.1319 141.986 75.8526 141.797 76.3836 142.1C76.6491 142.252 76.8387 142.479 76.9146 142.783C76.9905 143.086 76.9525 143.39 76.8008 143.655C76.5732 143.996 76.1939 144.224 75.8146 144.224ZM75.8146 142.328C75.5491 142.328 75.2836 142.479 75.1698 142.707C75.056 142.897 75.0561 143.086 75.094 143.276C75.1319 143.465 75.2836 143.617 75.4353 143.731C75.7767 143.921 76.2698 143.807 76.4594 143.465C76.5732 143.276 76.5732 143.086 76.5353 142.897C76.4974 142.707 76.3457 142.555 76.1939 142.441C76.0801 142.366 75.9284 142.328 75.8146 142.328Z" fill="#4B5364"/>
<path d="M40.5022 115.132H14.8619C14.0654 115.132 13.2689 114.791 12.6999 114.222L11.4103 112.932C10.8414 112.363 10.5 111.567 10.5 110.77V89.8332C10.5 88.0884 10.7276 86.3437 11.2207 84.6368L23.2822 42.0799C23.6236 40.8283 24.4201 39.6904 25.4822 38.9318L27.8717 37.225C28.8579 36.5043 30.0337 36.125 31.2854 36.125H77.6732C79.6076 36.125 81.2006 37.718 81.2006 39.6524V97.988C81.2006 99.4293 80.0248 100.567 78.6214 100.567H60.4152C57.836 100.567 55.3327 101.629 53.5121 103.488L43.6883 113.729C42.8539 114.639 41.6781 115.132 40.5022 115.132ZM31.2474 37.2629C30.2613 37.2629 29.313 37.5663 28.5165 38.1353L26.127 39.8421C25.2546 40.449 24.6477 41.3593 24.3443 42.3834L12.2827 84.9403C11.8275 86.5333 11.6 88.1643 11.6 89.8332V110.77C11.6 111.301 11.7896 111.756 12.1689 112.136L13.4585 113.425C13.7999 113.767 14.3309 113.994 14.824 113.994H40.4643C41.3367 113.994 42.2091 113.615 42.8159 112.97L52.6397 102.729C54.65 100.643 57.4567 99.4293 60.3394 99.4293H78.5455C79.3421 99.4293 79.9869 98.7845 79.9869 97.988V39.6524C79.9869 38.3249 78.9248 37.2629 77.5973 37.2629H31.2474Z" fill="#4B5364"/>
<path d="M22.9408 86.7991C22.1822 86.7991 21.4615 86.4578 20.9684 85.8888C20.4754 85.3199 20.2478 84.5234 20.3616 83.7648L25.5959 52.0936C26.3544 47.5421 30.2232 44.2422 34.8506 44.2422H60.0358C60.1876 44.2422 60.3393 44.3181 60.4531 44.3939C60.5669 44.4698 60.6048 44.6594 60.6048 44.8112V69.5412C60.6048 70.6032 60.0738 71.5894 59.1255 72.1583L36.5954 86.0785C35.9885 86.4578 35.3058 86.6474 34.5851 86.6853L22.9408 86.7991C22.9787 86.7991 22.9787 86.7991 22.9408 86.7991ZM34.8506 45.3801C30.7922 45.3801 27.3785 48.3007 26.7337 52.2833L21.4995 83.9544C21.4236 84.3716 21.5374 84.8268 21.8408 85.1302C22.1063 85.4716 22.5236 85.6612 22.9787 85.6233L34.5472 85.4716C35.0403 85.4716 35.5713 85.3199 35.9885 85.0544L58.5187 71.1342C59.0876 70.7929 59.429 70.1481 59.429 69.4653V45.3042H34.8506V45.3801Z" fill="#4B5364"/>
<path d="M36.8228 110.315H20.8166C18.4649 110.315 16.5305 108.381 16.5305 106.029V85.8505C16.5305 85.0919 16.6064 84.2953 16.7581 83.5747L23.813 49.1726C24.6474 45.1142 28.2507 42.1936 32.3471 42.1936H64.3217C65.3837 42.1936 66.2561 43.066 66.2561 44.128V97.6086C66.2561 97.7224 66.1802 97.7982 66.0665 97.7982C65.9527 97.7982 65.8768 97.7224 65.8768 97.6086V44.128C65.8768 43.2935 65.1941 42.5729 64.3217 42.5729H32.3471C28.4025 42.5729 24.9509 45.3797 24.1544 49.2485L17.0995 83.6505C16.9477 84.3712 16.8719 85.1298 16.8719 85.8505V106.029C16.8719 108.191 18.6166 109.936 20.7786 109.936H36.7849C38.7952 109.936 40.8054 109.215 42.3605 107.925L57.1151 95.7121C57.191 95.6363 57.3047 95.6742 57.3806 95.7501C57.4565 95.8259 57.4185 95.9397 57.3427 96.0156L42.5881 108.229C41.033 109.556 38.9469 110.315 36.8228 110.315Z" fill="#4B5364"/>
<path d="M58.2532 97.6468H65.9529V89.5299H62.7289C61.6669 89.5299 60.6428 90.0229 59.998 90.8953L58.1015 93.3607C57.5705 94.0814 57.2671 94.9538 57.2671 95.8641V96.6606C57.2671 97.1916 57.7222 97.6468 58.2532 97.6468Z" fill="#4B5364"/>
<path d="M95.5757 112.174C95.4619 112.174 95.3861 112.098 95.3861 111.984L94.0965 39.6524C94.0585 38.3628 93.5275 37.149 92.5793 36.2767C91.631 35.4043 90.4173 34.9112 89.0898 34.9871L42.0192 36.6939C41.9054 36.6939 41.8296 36.618 41.8296 36.5042C41.8296 36.3905 41.9054 36.3146 42.0192 36.3146L89.0898 34.6078C90.4932 34.5698 91.8207 35.0629 92.8448 36.0112C93.8689 36.9594 94.4378 38.2869 94.4757 39.6524L95.7274 111.794L107.41 111.718L98.7997 101.364C98.7618 101.326 98.7239 101.212 98.7618 101.174C98.7997 101.098 98.8756 101.06 98.9514 101.06H106.537C106.651 101.06 106.727 101.136 106.727 101.25C106.727 101.364 106.651 101.44 106.537 101.44H99.3687L107.979 111.794C108.017 111.832 108.055 111.946 108.017 111.984C107.979 112.06 107.903 112.098 107.827 112.098L95.5757 112.174Z" fill="#4B5364"/>
<path d="M44.6743 147.296H37.9608C37.6574 147.296 37.3918 147.031 37.3918 146.727C37.3918 146.424 37.6574 146.158 37.9608 146.158H44.6743C44.9778 146.158 45.2433 146.424 45.2433 146.727C45.2433 147.031 44.9778 147.296 44.6743 147.296Z" fill="#4B5364"/>
<path d="M80.1385 67.2651H66.2563C66.1425 67.2651 66.0667 67.1892 66.0667 67.0754C66.0667 66.9617 66.1425 66.8858 66.2563 66.8858H80.1385C80.2523 66.8858 80.3281 66.9617 80.3281 67.0754C80.3281 67.1892 80.2144 67.2651 80.1385 67.2651Z" fill="#4B5364"/>
<path d="M36.1403 148.396H24.0028C22.9408 148.396 22.0684 147.524 22.0684 146.462V141.759C22.0684 140.052 20.7029 138.686 18.9961 138.686H16.8721C15.5445 138.686 14.4446 137.586 14.4446 136.259V115.17C14.4446 114.867 14.7101 114.601 15.0135 114.601C15.317 114.601 15.5825 114.867 15.5825 115.17V136.259C15.5825 136.98 16.1514 137.548 16.8721 137.548H18.9961C21.3098 137.548 23.2063 139.445 23.2063 141.759V146.462C23.2063 146.917 23.5477 147.258 24.0028 147.258H36.1403C36.8609 147.258 37.5057 146.727 37.6574 146.045L42.6641 113.311C42.7021 113.008 43.0055 112.78 43.3089 112.818C43.6124 112.856 43.84 113.16 43.802 113.463L38.7953 146.234C38.5298 147.486 37.4299 148.396 36.1403 148.396Z" fill="#4B5364"/>
<path d="M41.5261 123.325H26.3543C26.2405 123.325 26.1267 123.211 26.1267 123.097C26.1267 122.983 26.2405 122.87 26.3543 122.87H41.5261C41.6399 122.87 41.7537 122.983 41.7537 123.097C41.7537 123.211 41.6399 123.325 41.5261 123.325Z" fill="#4B5364"/>
<path d="M39.4021 136.221H18.9202C18.8443 136.221 18.7685 136.183 18.7306 136.069C18.6926 135.994 18.7306 135.88 18.7685 135.842L26.0509 128.939C26.0889 128.901 26.1268 128.863 26.2027 128.863H40.6538C40.7676 128.863 40.8814 128.977 40.8814 129.09C40.8814 129.204 40.7676 129.318 40.6538 129.318H26.2785L19.4512 135.804H39.4021C39.5159 135.804 39.6297 135.918 39.6297 136.031C39.6297 136.145 39.5159 136.221 39.4021 136.221Z" fill="#4B5364"/>
<path d="M26.3546 123.325C26.3167 123.325 26.2408 123.325 26.2029 123.249C26.127 123.173 26.127 123.021 26.2029 122.945L30.2993 118.584C30.3372 118.546 30.4131 118.508 30.451 118.508H42.5505C42.6643 118.508 42.7781 118.621 42.7781 118.735C42.7781 118.849 42.6643 118.963 42.5505 118.963H30.5648L26.5443 123.287C26.4684 123.287 26.3925 123.325 26.3546 123.325Z" fill="#4B5364"/>
<path d="M26.2027 129.318C26.0889 129.318 25.9751 129.204 25.9751 129.09V114.601C25.9751 114.487 26.0889 114.373 26.2027 114.373C26.3165 114.373 26.4302 114.487 26.4302 114.601V129.09C26.3923 129.242 26.3165 129.318 26.2027 129.318Z" fill="#4B5364"/>
<path d="M30.451 118.925C30.3372 118.925 30.2234 118.812 30.2234 118.698V114.412C30.2234 114.298 30.3372 114.184 30.451 114.184C30.5648 114.184 30.6785 114.298 30.6785 114.412V118.698C30.6406 118.849 30.5648 118.925 30.451 118.925Z" fill="#4B5364"/>
<path d="M18.7684 138.118C18.6546 138.118 18.5408 138.004 18.5408 137.89V114.791C18.5408 114.677 18.6546 114.564 18.7684 114.564C18.8821 114.564 18.9959 114.677 18.9959 114.791V137.89C18.958 138.004 18.8821 138.118 18.7684 138.118Z" fill="#4B5364"/>
<path d="M44.9021 147.372C44.5987 147.372 44.3711 147.144 44.3332 146.841C44.2953 146.158 44.2573 145.513 44.2573 144.831C44.2573 130.152 56.2051 118.242 70.8459 118.242C75.663 118.242 80.3662 119.532 84.5005 121.997C84.766 122.149 84.8419 122.49 84.6902 122.794C84.5385 123.059 84.1971 123.135 83.8937 122.983C79.949 120.632 75.4354 119.38 70.8459 119.38C56.812 119.38 45.3952 130.797 45.3952 144.831C45.3952 145.475 45.4331 146.12 45.4711 146.765C45.509 147.068 45.2435 147.334 44.9401 147.372C44.9401 147.372 44.9401 147.372 44.9021 147.372Z" fill="#4B5364"/>
<path d="M50.8189 144.603H45.1674C45.0536 144.603 44.9778 144.527 44.9778 144.414C44.9778 144.3 45.0536 144.224 45.1674 144.224H50.8189C50.9327 144.224 51.0086 144.3 51.0086 144.414C51.0086 144.527 50.9327 144.603 50.8189 144.603Z" fill="#4B5364"/>
<path d="M84.2349 123.059C84.0832 123.059 83.9694 123.021 83.8556 122.907C83.628 122.718 83.5901 122.338 83.8177 122.111L89.8106 115.359C90.0002 115.132 90.3795 115.094 90.6071 115.321C90.8347 115.511 90.8726 115.89 90.645 116.118L84.6521 122.869C84.5384 122.983 84.3866 123.059 84.2349 123.059Z" fill="#4B5364"/>
<path d="M98.6103 159.244H98.5723C98.4965 159.206 98.4206 159.13 98.4206 159.054V153.403C98.4206 145.817 96.6758 138.421 93.4139 131.973C91.2519 127.686 88.521 123.969 85.3349 120.897C85.2591 120.821 85.2591 120.707 85.3349 120.632C85.4108 120.556 85.5246 120.556 85.6004 120.632C88.8244 123.742 91.5554 127.497 93.7553 131.821C97.0551 138.307 98.7999 145.779 98.7999 153.441V158.334L100.393 155.261V149.42C100.431 148.51 100.279 141.948 100.279 141.872C99.1033 127.649 92.5415 114.98 82.7178 108.001H49.226C49.1122 108.001 49.0364 107.925 49.0364 107.811C49.0364 107.698 49.1122 107.622 49.226 107.622H82.7936C82.8316 107.622 82.8695 107.622 82.9074 107.66C92.845 114.677 99.4826 127.459 100.658 141.872C100.658 142.138 100.81 148.548 100.772 149.458V155.337C100.772 155.375 100.772 155.413 100.734 155.413L98.762 159.206C98.762 159.206 98.6861 159.244 98.6103 159.244Z" fill="#4B5364"/>
<path d="M85.9416 110.77C85.9037 110.77 85.8278 110.732 85.7899 110.694C85.714 110.619 85.752 110.505 85.8278 110.429L95.1205 102.919C95.1964 102.843 95.3102 102.881 95.3861 102.957C95.4619 103.033 95.424 103.146 95.3481 103.222L86.0554 110.732C86.0554 110.77 86.0175 110.77 85.9416 110.77Z" fill="#4B5364"/>
<path d="M94.6654 99.8843H80.0246C79.9108 99.8843 79.835 99.8085 79.835 99.6947C79.835 99.5809 79.9108 99.505 80.0246 99.505H94.6654C94.7792 99.505 94.855 99.5809 94.855 99.6947C94.855 99.8085 94.7792 99.8843 94.6654 99.8843Z" fill="#4B5364"/>
<path d="M52.1083 36.1625C51.9946 36.1625 51.9187 36.0867 51.9187 35.9729V32.2179C51.9187 32.1041 51.9946 32.0282 52.1083 32.0282H84.8415C88.0655 32.0282 89.6965 32.9006 89.6965 34.6074C89.6965 34.7212 89.6206 34.7971 89.5069 34.7971C89.3931 34.7971 89.3172 34.7212 89.3172 34.6074C89.3172 33.1661 87.8 32.4075 84.8415 32.4075H52.298V35.9729C52.298 36.0867 52.2221 36.1625 52.1083 36.1625Z" fill="#4B5364"/>
<path d="M61.5151 36.7316L56.7739 37.1109V32.4077H61.5151V36.7316Z" fill="#4B5364"/>
<path d="M67.925 32.2179H64.9666V35.5937H67.925V32.2179Z" fill="#4B5364"/>
<path d="M72.9317 32.2179H70.6938V35.3282H72.9317V32.2179Z" fill="#4B5364"/>
<path d="M78.6212 32.6733H78.2419V35.1387H78.6212V32.6733Z" fill="#4B5364"/>
<path d="M109.61 65.6339H103.086C102.972 65.6339 102.896 65.558 102.896 65.4442L100.81 41.0176C100.62 38.666 98.686 36.9212 96.3343 36.9212H93.4138C93.3 36.9212 93.2241 36.8454 93.2241 36.7316C93.2241 36.6178 93.3 36.5419 93.4138 36.5419H96.3343C98.8756 36.5419 100.962 38.4763 101.189 41.0176L103.275 65.2546H109.648C109.761 65.2546 109.837 65.3304 109.837 65.4442C109.837 65.558 109.723 65.6339 109.61 65.6339Z" fill="#4B5364"/>
<path d="M113.175 101.667H106.537C106.424 101.667 106.348 101.591 106.348 101.477V65.5581C106.348 65.4443 106.424 65.3684 106.537 65.3684H113.175C113.289 65.3684 113.365 65.4443 113.365 65.5581V101.477C113.365 101.591 113.289 101.667 113.175 101.667ZM106.727 101.288H112.985V65.7477H106.727V101.288Z" fill="#4B5364"/>
<path d="M111.885 65.6341H107.599C107.486 65.6341 107.41 65.5582 107.41 65.4444V30.5113C107.41 27.6287 109.761 25.2771 112.644 25.2771H113.896C114.502 25.2771 115.033 25.7702 115.033 26.415V31.3079C115.033 31.4216 114.958 31.4975 114.844 31.4975H113.896C112.909 31.4975 112.075 32.332 112.075 33.3181V65.4444C112.075 65.5582 111.999 65.6341 111.885 65.6341ZM107.789 65.2548H111.696V33.3181C111.696 32.1044 112.682 31.1182 113.896 31.1182H114.616V26.415C114.616 25.9977 114.275 25.6564 113.858 25.6564H112.606C109.913 25.6564 107.751 27.8183 107.751 30.5113V65.2548H107.789Z" fill="#4B5364"/>
<path d="M72.0974 97.7224H66.0666C65.9528 97.7224 65.877 97.6465 65.877 97.5327C65.877 97.4189 65.9528 97.3431 66.0666 97.3431H71.9077V77.4301C71.9077 77.3163 71.9836 77.2404 72.0974 77.2404H95.0447C95.1585 77.2404 95.2344 77.3163 95.2344 77.4301C95.2344 77.5439 95.1585 77.6197 95.0447 77.6197H72.287V97.5327C72.287 97.6465 72.2112 97.7224 72.0974 97.7224Z" fill="#4B5364"/>
<path d="M87.4587 97.6087C87.3449 97.6087 87.269 97.5329 87.269 97.4191V77.7337C87.269 77.6199 87.3449 77.544 87.4587 77.544C87.5725 77.544 87.6483 77.6199 87.6483 77.7337V97.4191C87.6483 97.5329 87.5345 97.6087 87.4587 97.6087Z" fill="#4B5364"/>
<path d="M90.4931 97.6087C90.3793 97.6087 90.3035 97.5329 90.3035 97.4191V77.7337C90.3035 77.6199 90.3793 77.544 90.4931 77.544C90.6069 77.544 90.6828 77.6199 90.6828 77.7337V97.4191C90.6828 97.5329 90.569 97.6087 90.4931 97.6087Z" fill="#4B5364"/>
<path d="M94.9688 97.7223H81.0107C80.8969 97.7223 80.821 97.6465 80.821 97.5327C80.821 97.4189 80.8969 97.343 81.0107 97.343H94.9688C95.0825 97.343 95.1584 97.4189 95.1584 97.5327C95.1584 97.6465 95.0825 97.7223 94.9688 97.7223Z" fill="#4B5364"/>
<path d="M71.9077 107.888C71.7939 107.888 71.718 107.812 71.718 107.698V100.264C71.718 100.15 71.7939 100.074 71.9077 100.074C72.0215 100.074 72.0973 100.15 72.0973 100.264V107.698C72.0973 107.812 72.0215 107.888 71.9077 107.888Z" fill="#4B5364"/>
<path d="M122.468 149.344H110.785C110.672 149.344 110.596 149.268 110.596 149.154V132.845H106.31C106.196 132.845 106.12 132.769 106.12 132.655C106.12 132.541 106.196 132.465 106.31 132.465H110.785C110.899 132.465 110.975 132.541 110.975 132.655V148.965H122.278V146.499C122.278 146.385 122.354 146.31 122.468 146.31H125.919C126.033 146.31 126.109 146.385 126.109 146.499C126.109 146.613 126.033 146.689 125.919 146.689H122.657V149.154C122.657 149.268 122.582 149.344 122.468 149.344Z" fill="#4B5364"/>
<path d="M100.696 145.058C100.658 145.058 100.582 145.02 100.545 144.982C100.469 144.906 100.507 144.792 100.582 144.717C104.262 141.834 106.272 137.358 105.931 132.693C105.931 132.579 106.006 132.503 106.12 132.503C106.196 132.503 106.31 132.579 106.31 132.693C106.651 137.472 104.603 142.099 100.81 145.058C100.772 145.058 100.734 145.058 100.696 145.058Z" fill="#4B5364"/>
<path d="M113.706 152.758C113.402 152.758 113.137 152.493 113.137 152.189V123.477C113.137 123.325 113.175 123.173 113.289 123.097L116.74 119.418C116.968 119.191 117.309 119.191 117.537 119.38C117.764 119.608 117.764 119.949 117.575 120.177L114.275 123.666V152.151C114.275 152.493 114.009 152.758 113.706 152.758Z" fill="#4B5364"/>
<path d="M119.016 152.758C118.713 152.758 118.447 152.493 118.447 152.189V123.477C118.447 123.325 118.485 123.173 118.599 123.097L122.051 119.418C122.278 119.191 122.62 119.191 122.847 119.38C123.075 119.608 123.075 119.949 122.885 120.177L119.585 123.666V152.151C119.585 152.493 119.32 152.758 119.016 152.758Z" fill="#4B5364"/>
<path d="M126.261 146.727C126.147 146.727 126.071 146.651 126.071 146.575C125.995 145.779 125.957 144.944 125.957 144.11C125.957 131.631 136.122 121.466 148.601 121.466C161.08 121.466 171.245 131.631 171.245 144.11C171.245 144.224 171.169 144.3 171.055 144.3C170.942 144.3 170.866 144.224 170.866 144.11C170.866 131.821 160.89 121.845 148.601 121.845C136.312 121.845 126.337 131.821 126.337 144.11C126.337 144.906 126.374 145.741 126.45 146.537C126.45 146.613 126.374 146.727 126.261 146.727Z" fill="#4B5364"/>
<path d="M122.695 146.917C122.619 146.917 122.506 146.841 122.506 146.765C119.926 131.707 130.13 117.332 145.188 114.791C160.246 112.212 174.621 122.415 177.162 137.473C177.162 137.586 177.124 137.662 177.01 137.7C176.897 137.7 176.821 137.662 176.783 137.548C175.569 130.342 171.586 124.046 165.632 119.835C159.677 115.625 152.432 113.956 145.225 115.17C130.357 117.711 120.344 131.859 122.847 146.727C122.885 146.803 122.809 146.879 122.695 146.917Z" fill="#4B5364"/>
<path d="M220.857 137.851H220.819C220.705 137.813 220.667 137.738 220.667 137.624C223.853 123.4 236.711 113.652 251.238 114.411C251.352 114.411 251.428 114.525 251.428 114.601C251.428 114.714 251.314 114.79 251.238 114.79C236.901 114.032 224.195 123.666 221.047 137.7C221.047 137.813 220.971 137.851 220.857 137.851Z" fill="#4B5364"/>
<path d="M330.132 137.851C330.056 137.851 329.98 137.776 329.942 137.7C326.794 123.666 314.088 114.032 299.75 114.79C299.637 114.79 299.561 114.714 299.561 114.601C299.561 114.487 299.637 114.411 299.75 114.411C314.277 113.652 327.135 123.4 330.321 137.624C330.359 137.738 330.284 137.813 330.17 137.851C330.17 137.851 330.17 137.851 330.132 137.851Z" fill="#4B5364"/>
<path d="M302.481 114.753H250.442C250.328 114.753 250.252 114.677 250.252 114.563C250.252 114.449 250.328 114.373 250.442 114.373H302.443C302.557 114.373 302.633 114.449 302.633 114.563C302.633 114.677 302.595 114.753 302.481 114.753Z" fill="#4B5364"/>
<path d="M223.246 145.362C223.132 145.362 223.057 145.286 223.057 145.172C223.057 132.049 233.715 121.391 246.838 121.391C246.952 121.391 247.028 121.466 247.028 121.58C247.028 121.694 246.952 121.77 246.838 121.77C233.942 121.77 223.436 132.276 223.436 145.172C223.436 145.286 223.36 145.362 223.246 145.362Z" fill="#4B5364"/>
<path d="M327.628 145.362C327.515 145.362 327.439 145.286 327.439 145.172C327.439 132.276 316.932 121.77 304.036 121.77C303.923 121.77 303.847 121.694 303.847 121.58C303.847 121.466 303.923 121.391 304.036 121.391C317.16 121.391 327.818 132.049 327.818 145.172C327.818 145.286 327.742 145.362 327.628 145.362Z" fill="#4B5364"/>
<path d="M305.288 121.77H246.877C246.763 121.77 246.687 121.694 246.687 121.58C246.687 121.466 246.763 121.391 246.877 121.391H305.288C305.402 121.391 305.478 121.466 305.478 121.58C305.478 121.694 305.364 121.77 305.288 121.77Z" fill="#4B5364"/>
<path d="M224.688 150.255C224.612 150.255 224.536 150.217 224.498 150.103L220.667 137.89C220.629 137.776 220.705 137.7 220.781 137.662C220.895 137.624 220.971 137.7 221.009 137.776L224.84 149.989C224.877 150.103 224.802 150.179 224.726 150.217C224.726 150.255 224.688 150.255 224.688 150.255Z" fill="#4B5364"/>
<path d="M327.629 145.362C327.591 145.362 327.591 145.362 327.553 145.362C327.439 145.324 327.401 145.21 327.439 145.134L329.942 137.814C329.98 137.7 330.094 137.662 330.17 137.7C330.284 137.738 330.322 137.852 330.284 137.928L327.78 145.248C327.78 145.324 327.742 145.362 327.629 145.362Z" fill="#4B5364"/>
<path d="M217.936 133.262H179.931C178.527 133.262 177.352 132.125 177.352 130.683V129.166C177.352 127.763 178.49 126.587 179.931 126.587H217.936C219.34 126.587 220.515 127.725 220.515 129.166V130.683C220.515 132.125 219.378 133.262 217.936 133.262ZM179.931 127.763C179.134 127.763 178.49 128.408 178.49 129.204V130.721C178.49 131.518 179.134 132.163 179.931 132.163H217.936C218.733 132.163 219.378 131.518 219.378 130.721V129.204C219.378 128.408 218.733 127.763 217.936 127.763H179.931Z" fill="#4B5364"/>
<path d="M217.936 150.71H179.931C178.527 150.71 177.352 149.572 177.352 148.131V146.613C177.352 145.21 178.49 144.034 179.931 144.034H217.936C219.34 144.034 220.515 145.172 220.515 146.613V148.131C220.515 149.572 219.378 150.71 217.936 150.71ZM179.931 145.21C179.134 145.21 178.49 145.855 178.49 146.651V148.169C178.49 148.965 179.134 149.61 179.931 149.61H217.936C218.733 149.61 219.378 148.965 219.378 148.169V146.651C219.378 145.855 218.733 145.21 217.936 145.21H179.931Z" fill="#4B5364"/>
<path d="M182.624 144.907C182.321 144.907 182.055 144.641 182.055 144.338V132.769C182.055 132.466 182.321 132.2 182.624 132.2C182.927 132.2 183.193 132.466 183.193 132.769V144.338C183.193 144.679 182.927 144.907 182.624 144.907Z" fill="#4B5364"/>
<path d="M182.624 127.686C182.321 127.686 182.055 127.421 182.055 127.118V109.177C182.055 108.873 182.321 108.608 182.624 108.608C182.927 108.608 183.193 108.873 183.193 109.177V127.118C183.193 127.421 182.927 127.686 182.624 127.686Z" fill="#4B5364"/>
<path d="M216.002 144.907C215.698 144.907 215.433 144.641 215.433 144.338V132.769C215.433 132.466 215.698 132.2 216.002 132.2C216.305 132.2 216.571 132.466 216.571 132.769V144.338C216.571 144.679 216.305 144.907 216.002 144.907Z" fill="#4B5364"/>
<path d="M216.002 127.686C215.698 127.686 215.433 127.421 215.433 127.118V109.177C215.433 108.873 215.698 108.608 216.002 108.608C216.305 108.608 216.571 108.873 216.571 109.177V127.118C216.571 127.421 216.305 127.686 216.002 127.686Z" fill="#4B5364"/>
<path d="M188.617 144.451C185.545 144.451 183.003 141.948 183.003 138.838C183.003 135.728 185.507 133.224 188.617 133.224C191.727 133.224 194.231 135.728 194.231 138.838C194.231 141.948 191.727 144.451 188.617 144.451ZM188.617 133.717C185.772 133.717 183.459 136.031 183.459 138.876C183.459 141.72 185.772 144.034 188.617 144.034C191.462 144.034 193.775 141.72 193.775 138.876C193.775 136.031 191.462 133.717 188.617 133.717Z" fill="#4B5364"/>
<path d="M199.427 144.451C196.354 144.451 193.813 141.948 193.813 138.838C193.813 135.728 196.316 133.224 199.427 133.224C202.537 133.224 205.04 135.728 205.04 138.838C205.04 141.948 202.499 144.451 199.427 144.451ZM199.427 133.717C196.582 133.717 194.268 136.031 194.268 138.876C194.268 141.72 196.582 144.034 199.427 144.034C202.271 144.034 204.585 141.72 204.585 138.876C204.585 136.031 202.271 133.717 199.427 133.717Z" fill="#4B5364"/>
<path d="M210.199 144.451C207.127 144.451 204.585 141.948 204.585 138.838C204.585 135.728 207.089 133.224 210.199 133.224C213.309 133.224 215.812 135.728 215.812 138.838C215.812 141.948 213.271 144.451 210.199 144.451ZM210.199 133.717C207.354 133.717 205.04 136.031 205.04 138.876C205.04 141.72 207.354 144.034 210.199 144.034C213.044 144.034 215.357 141.72 215.357 138.876C215.357 136.031 213.044 133.717 210.199 133.717Z" fill="#4B5364"/>
<path d="M220.705 137.928H215.547C215.433 137.928 215.357 137.852 215.357 137.738C215.357 137.624 215.433 137.548 215.547 137.548H220.705C220.819 137.548 220.895 137.624 220.895 137.738C220.895 137.852 220.781 137.928 220.705 137.928Z" fill="#4B5364"/>
<path d="M174.507 146.993H171.7C171.586 146.993 171.511 146.917 171.511 146.803C171.511 146.689 171.586 146.613 171.7 146.613H174.317V137.776C174.317 137.662 174.393 137.586 174.507 137.586H182.814C182.927 137.586 183.003 137.662 183.003 137.776C183.003 137.89 182.927 137.965 182.814 137.965H174.697V146.803C174.697 146.879 174.621 146.993 174.507 146.993Z" fill="#4B5364"/>
<path d="M280.103 158.068C280.065 158.068 279.989 158.03 279.951 157.992L266.903 143.351C266.827 143.275 266.827 143.161 266.903 143.086C266.979 143.01 267.093 143.01 267.169 143.086L280.217 157.726C280.292 157.802 280.292 157.916 280.217 157.992C280.179 158.03 280.141 158.068 280.103 158.068Z" fill="#4B5364"/>
<path d="M327.818 160.23C327.78 160.23 327.742 160.23 327.704 160.192L320.991 154.465C320.915 154.389 320.915 154.275 320.953 154.199C321.029 154.123 321.143 154.123 321.218 154.161L327.628 159.623V143.2C327.628 143.086 327.704 143.01 327.818 143.01C327.932 143.01 328.008 143.086 328.008 143.2V160.003C328.008 160.078 327.97 160.154 327.894 160.192C327.856 160.23 327.856 160.23 327.818 160.23Z" fill="#4B5364"/>
<path d="M332.749 97.1156C332.711 97.1156 332.673 97.1156 332.635 97.0777L291.52 64.079H128.537C128.423 64.079 128.347 64.0032 128.347 63.8894C128.347 63.7756 128.423 63.6997 128.537 63.6997H291.596C291.633 63.6997 291.671 63.6997 291.709 63.7377L332.863 96.7743C332.939 96.8501 332.939 96.9639 332.901 97.0398C332.825 97.0777 332.787 97.1156 332.749 97.1156Z" fill="#4B5364"/>
<path d="M337.49 129.735H326.984C326.68 129.735 326.415 129.469 326.415 129.166C326.415 128.862 326.68 128.597 326.984 128.597H336.921V121.656C336.921 121.352 337.187 121.087 337.49 121.087H339.349L346.821 109.822V105.649C346.821 105.611 346.821 105.573 346.821 105.498L349.362 95.2566V67.5681L337.831 56.303H128.461V96.3186H332.749C333.052 96.3186 333.318 96.5841 333.318 96.8876C333.318 97.191 333.052 97.4565 332.749 97.4565H127.93C127.626 97.4565 127.361 97.191 127.361 96.8876V55.772C127.361 55.4686 127.626 55.203 127.93 55.203H338.059C338.211 55.203 338.362 55.2789 338.438 55.3548L350.31 66.9233C350.424 67.037 350.5 67.1888 350.5 67.3405V95.3325C350.5 95.3704 350.5 95.4083 350.5 95.4842L347.959 105.725V110.011C347.959 110.125 347.921 110.239 347.883 110.315L340.183 121.997C340.069 122.149 339.918 122.262 339.69 122.262H338.097V129.166C338.059 129.507 337.794 129.735 337.49 129.735Z" fill="#4B5364"/>
<path d="M334.114 105.005H130.698C130.395 105.005 130.129 104.739 130.129 104.436C130.129 104.133 130.395 103.867 130.698 103.867H333.811L341.511 91.4261L302.936 61.9549C302.785 61.8411 302.709 61.6894 302.709 61.4998V55.6586C302.709 55.3552 302.974 55.0897 303.278 55.0897C303.581 55.0897 303.847 55.3552 303.847 55.6586V61.1963L342.611 90.8193C342.838 91.0089 342.914 91.3124 342.762 91.5779L334.645 104.739C334.494 104.891 334.304 105.005 334.114 105.005Z" fill="#4B5364"/>
<path d="M130.661 112.06H107.827C107.713 112.06 107.637 111.984 107.637 111.87C107.637 111.757 107.713 111.681 107.827 111.681H130.471V104.512C130.471 104.398 130.547 104.322 130.661 104.322C130.774 104.322 130.85 104.398 130.85 104.512V111.87C130.85 111.984 130.774 112.06 130.661 112.06Z" fill="#4B5364"/>
<path d="M334.152 85.168C334.114 85.168 334.114 85.168 334.152 85.168C334.001 85.168 333.963 85.0542 333.963 84.9404L335.897 72.6513L323.987 63.2827L311.205 67.7963C311.091 67.8342 311.015 67.7963 310.977 67.6825C310.94 67.5687 310.977 67.4929 311.091 67.4549L323.949 62.9034C324.025 62.8655 324.063 62.9034 324.139 62.9413L336.201 72.4237C336.239 72.4616 336.276 72.5375 336.276 72.6133L334.304 85.0163C334.304 85.0921 334.228 85.168 334.152 85.168Z" fill="#4B5364"/>
<path d="M338.059 55.9618L325.77 53.7998H137.64L130.243 55.9618C130.13 55.9997 130.054 55.9239 130.016 55.848C129.978 55.7342 130.054 55.6584 130.13 55.6204L137.564 53.4585H137.602H325.808L338.097 55.6204C338.211 55.6204 338.287 55.7342 338.249 55.848C338.249 55.8859 338.173 55.9618 338.059 55.9618Z" fill="#4B5364"/>
<path d="M127.93 55.962C127.816 55.962 127.74 55.8861 127.74 55.7723V38.1351C127.74 38.0213 127.816 37.9455 127.93 37.9455C128.043 37.9455 128.119 38.0213 128.119 38.1351V55.7344C128.119 55.8482 128.005 55.962 127.93 55.962Z" fill="#4B5364"/>
<path d="M131.874 55.3169C131.761 55.3169 131.685 55.2411 131.685 55.1273V45.7587C131.685 41.7382 134.985 38.4383 139.005 38.4383H145.15C145.263 38.4383 145.339 38.5142 145.339 38.628C145.339 38.7418 145.263 38.8176 145.15 38.8176H139.005C135.174 38.8176 132.064 41.9278 132.064 45.7587V55.1273C132.064 55.2411 131.988 55.3169 131.874 55.3169Z" fill="#4B5364"/>
<path d="M127.93 80.5024C127.854 80.5024 127.778 80.4644 127.74 80.3507L127.361 79.061C125.54 72.9544 122.126 67.4167 117.499 63.0169C117.461 62.9789 117.423 62.941 117.423 62.8651V56.1516C117.423 56.0378 117.499 55.962 117.613 55.962H120.761L127.778 56.2275C127.892 56.2275 127.967 56.3033 127.967 56.4171C127.967 56.5309 127.892 56.6068 127.778 56.6068L120.761 56.3413H117.802V62.7893C122.468 67.1891 125.881 72.8027 127.702 78.9473L128.081 80.2369C128.119 80.3506 128.043 80.4265 127.967 80.4644C127.967 80.5024 127.93 80.5024 127.93 80.5024Z" fill="#4B5364"/>
<path d="M136.805 38.8178H144.998C145.718 38.8178 146.325 38.2109 146.325 37.4903V34.9111C146.325 34.1904 145.718 33.5835 144.998 33.5835H136.805V38.8178Z" fill="#4B5364"/>
<path d="M120.799 56.0379C120.685 56.0379 120.609 55.9621 120.609 55.8483V47.9969C120.609 41.9661 125.502 37.0732 131.533 37.0732H137.867C137.981 37.0732 138.057 37.149 138.057 37.2628C138.057 37.3766 137.981 37.4525 137.867 37.4525H131.533C125.73 37.4525 120.989 42.1937 120.989 47.9969V55.8483C120.989 55.9621 120.913 56.0379 120.799 56.0379Z" fill="#4B5364"/>
<path d="M117.613 56.3413C117.499 56.3413 117.423 56.2654 117.423 56.1516V38.6282C117.423 38.211 117.537 37.7937 117.727 37.4524L119.054 34.949C119.509 34.1146 120.344 33.6215 121.292 33.6215H136.767C136.881 33.6215 136.957 33.6973 136.957 33.8111C136.957 33.9249 136.881 34.0008 136.767 34.0008H121.292C120.495 34.0008 119.775 34.418 119.395 35.1387L118.068 37.642C117.916 37.9455 117.802 38.2868 117.802 38.6661V56.1895C117.802 56.2654 117.727 56.3413 117.613 56.3413Z" fill="#4B5364"/>
<path d="M118.22 80.0092C118.182 80.0092 118.144 80.0092 118.106 79.9712C118.03 79.9333 118.03 79.8574 118.03 79.8195V65.6339H111.506C111.393 65.6339 111.317 65.558 111.317 65.4442C111.317 65.3304 111.393 65.2546 111.506 65.2546H118.22C118.334 65.2546 118.409 65.3304 118.409 65.4442V79.4781L122.278 77.392V75.5335C122.278 75.4197 122.354 75.3438 122.468 75.3438H126.223C126.337 75.3438 126.413 75.4197 126.413 75.5335C126.413 75.6473 126.337 75.7231 126.223 75.7231H122.658V77.5058C122.658 77.5817 122.62 77.6575 122.544 77.6575L118.296 79.9333C118.296 79.9712 118.258 80.0092 118.22 80.0092Z" fill="#4B5364"/>
<path d="M129.75 123.856H95.3103C95.1965 123.856 95.1206 123.78 95.1206 123.666C95.1206 123.553 95.1965 123.477 95.3103 123.477H129.788C129.902 123.477 129.978 123.553 129.978 123.666C129.978 123.78 129.864 123.856 129.75 123.856Z" fill="#4B5364"/>
<path d="M114.92 111.946H111.772C111.696 111.946 111.658 111.908 111.62 111.87L108.282 106.447C108.282 106.409 108.244 106.371 108.244 106.333L108.168 101.667C108.168 101.629 108.168 101.554 108.206 101.516C108.244 101.478 108.282 101.478 108.358 101.478H111.506C111.544 101.478 111.62 101.516 111.658 101.516C111.696 101.516 111.696 101.592 111.696 101.667L111.658 105.953L115.071 111.643C115.109 111.719 115.109 111.757 115.071 111.833C115.033 111.908 114.996 111.946 114.92 111.946ZM111.885 111.567H114.616L111.316 106.105C111.316 106.067 111.278 106.029 111.278 105.991L111.316 101.819H108.548L108.623 106.257L111.885 111.567Z" fill="#4B5364"/>
<path d="M119.585 111.946C119.471 111.946 119.396 111.87 119.396 111.756V97.0017L113.251 101.629C113.175 101.705 113.061 101.667 112.985 101.591C112.91 101.515 112.948 101.402 113.023 101.326L119.471 96.4707C119.547 96.4328 119.623 96.4328 119.661 96.4707C119.737 96.5087 119.775 96.5845 119.775 96.6224V111.756C119.775 111.87 119.699 111.946 119.585 111.946Z" fill="#4B5364"/>
<path d="M127.93 97.1155L119.623 96.8121C119.509 96.8121 119.433 96.7362 119.433 96.6224C119.433 96.5086 119.509 96.4328 119.623 96.4328L127.93 96.7362C128.043 96.7362 128.119 96.8121 128.119 96.9259C128.081 97.0397 128.005 97.1155 127.93 97.1155Z" fill="#4B5364"/>
<path d="M119.585 96.8122C119.471 96.8122 119.395 96.7363 119.395 96.6225L117.992 79.8198C117.992 79.706 118.068 79.6301 118.182 79.6301C118.296 79.6301 118.371 79.706 118.371 79.8198L119.775 96.6225C119.813 96.6984 119.737 96.8122 119.585 96.8122C119.623 96.8122 119.623 96.8122 119.585 96.8122Z" fill="#4B5364"/>
<path d="M122.468 96.8121C122.354 96.8121 122.278 96.7362 122.278 96.6225V77.5439C122.278 77.4301 122.354 77.3543 122.468 77.3543C122.582 77.3543 122.657 77.4301 122.657 77.5439V96.6225C122.657 96.7362 122.582 96.8121 122.468 96.8121Z" fill="#4B5364"/>
<path d="M251.087 114.753H150.839C150.725 114.753 150.649 114.677 150.649 114.563C150.649 114.449 150.725 114.373 150.839 114.373H251.087C251.2 114.373 251.276 114.449 251.276 114.563C251.276 114.677 251.2 114.753 251.087 114.753Z" fill="#4B5364"/>
<path d="M337.49 121.845H325.922C325.846 121.845 325.808 121.807 325.77 121.731C325.732 121.656 325.732 121.618 325.77 121.542L334.266 109.86V104.436C334.266 104.322 334.342 104.246 334.456 104.246C334.569 104.246 334.645 104.322 334.645 104.436V109.935C334.645 109.973 334.645 110.011 334.607 110.049L326.301 121.504H337.528C337.642 121.504 337.718 121.58 337.718 121.694C337.718 121.807 337.566 121.845 337.49 121.845Z" fill="#4B5364"/>
<path d="M347.39 110.164H334.228C334.114 110.164 334.038 110.088 334.038 109.974C334.038 109.86 334.114 109.784 334.228 109.784H347.39C347.503 109.784 347.579 109.86 347.579 109.974C347.579 110.088 347.465 110.164 347.39 110.164Z" fill="#4B5364"/>
<path d="M347.39 105.232H334.228C334.114 105.232 334.038 105.157 334.038 105.043C334.038 104.929 334.114 104.853 334.228 104.853H347.39C347.503 104.853 347.579 104.929 347.579 105.043C347.579 105.157 347.465 105.232 347.39 105.232Z" fill="#4B5364"/>
<path d="M349.931 95.5225C349.893 95.5225 349.855 95.5225 349.855 95.4846L342.345 91.0468C342.269 91.0089 342.231 90.8951 342.269 90.8192C342.307 90.7434 342.421 90.7054 342.497 90.7434L350.007 95.1811C350.083 95.2191 350.121 95.3328 350.083 95.4087C350.083 95.4846 350.007 95.5225 349.931 95.5225Z" fill="#4B5364"/>
<path d="M112.795 58.0483H106.841C106.499 58.0483 106.234 57.7828 106.234 57.4414V56.6828C106.234 56.3414 106.499 56.0759 106.841 56.0759H112.795C113.137 56.0759 113.402 56.3414 113.402 56.6828V57.4414C113.402 57.7828 113.137 58.0483 112.795 58.0483Z" fill="#4B5364"/>
<path d="M112.796 58.2377H106.841C106.423 58.2377 106.044 57.8963 106.044 57.4412V56.6826C106.044 56.2654 106.386 55.8861 106.841 55.8861H112.796C113.213 55.8861 113.592 56.2274 113.592 56.6826V57.4412C113.592 57.8584 113.213 58.2377 112.796 58.2377ZM106.841 56.3033C106.613 56.3033 106.423 56.4929 106.423 56.7205V57.4791C106.423 57.7067 106.613 57.8963 106.841 57.8963H112.796C113.023 57.8963 113.213 57.7067 113.213 57.4791V56.7205C113.213 56.4929 113.023 56.3033 112.796 56.3033H106.841Z" fill="#4B5364"/>
<path d="M113.327 66.3928H106.158C105.817 66.3928 105.513 66.0893 105.513 65.748V65.1032C105.513 64.7618 105.817 64.4583 106.158 64.4583H113.327C113.668 64.4583 113.972 64.7618 113.972 65.1032V65.748C113.972 66.0893 113.668 66.3928 113.327 66.3928Z" fill="#4B5364"/>
<path d="M113.327 66.5821H106.158C105.703 66.5821 105.324 66.2029 105.324 65.7477V65.1029C105.324 64.6477 105.703 64.2684 106.158 64.2684H113.327C113.782 64.2684 114.161 64.6477 114.161 65.1029V65.7477C114.161 66.2029 113.782 66.5821 113.327 66.5821ZM106.158 64.6477C105.893 64.6477 105.703 64.8374 105.703 65.1029V65.7477C105.703 66.0132 105.893 66.2029 106.158 66.2029H113.327C113.592 66.2029 113.782 66.0132 113.782 65.7477V65.1029C113.782 64.8374 113.592 64.6477 113.327 64.6477H106.158Z" fill="#4B5364"/>
<path d="M113.327 102.046H106.158C105.817 102.046 105.513 101.743 105.513 101.401V100.756C105.513 100.415 105.817 100.112 106.158 100.112H113.327C113.668 100.112 113.972 100.415 113.972 100.756V101.401C113.972 101.743 113.668 102.046 113.327 102.046Z" fill="#4B5364"/>
<path d="M113.327 102.236H106.158C105.703 102.236 105.324 101.857 105.324 101.402V100.757C105.324 100.302 105.703 99.9224 106.158 99.9224H113.327C113.782 99.9224 114.161 100.302 114.161 100.757V101.402C114.161 101.857 113.782 102.236 113.327 102.236ZM106.158 100.302C105.893 100.302 105.703 100.491 105.703 100.757V101.402C105.703 101.667 105.893 101.857 106.158 101.857H113.327C113.592 101.857 113.782 101.667 113.782 101.402V100.757C113.782 100.491 113.592 100.302 113.327 100.302H106.158Z" fill="#4B5364"/>
<path d="M88.8624 34.8356C89.621 34.8356 90.3037 34.8735 90.7589 34.9494C90.7589 34.9114 90.7589 34.9114 90.7589 34.8735C90.7589 32.7495 89.052 31.0426 86.928 31.0426H76.156C75.625 31.0426 75.2078 31.4599 75.2078 31.9909C75.2078 32.5219 75.625 32.9391 76.156 32.9391H86.928C87.99 32.9391 88.8245 33.7736 88.8624 34.8356Z" fill="#4B5364"/>
<path d="M90.7209 35.1384C90.3037 35.1005 89.6589 35.0625 88.8623 35.0246H88.6727V34.8349C88.6348 33.8867 87.8762 33.1281 86.9279 33.1281H76.156C75.5112 33.1281 75.0181 32.635 75.0181 31.9902C75.0181 31.3454 75.5112 30.8523 76.156 30.8523H86.9279C89.1278 30.8523 90.9485 32.673 90.9485 34.8729V34.9487L90.9105 35.1384H90.7209ZM89.052 34.6453C89.6968 34.6453 90.1899 34.6832 90.5692 34.7212C90.4933 32.7868 88.9003 31.2316 86.9279 31.2316H76.156C75.7387 31.2316 75.3974 31.573 75.3974 31.9902C75.3974 32.4075 75.7387 32.7488 76.156 32.7488H86.9279C88.0279 32.7488 88.9382 33.5833 89.052 34.6453Z" fill="#4B5364"/>
<path d="M98.7619 71.7407H94.8172C94.7034 71.7407 94.6276 71.6648 94.6276 71.551L94.2483 51.9415C94.2483 51.9035 94.2483 51.8277 94.2862 51.7897C94.3241 51.7518 94.3621 51.7518 94.4379 51.7518H97.2447C98.3447 51.7518 99.255 52.5863 99.3688 53.6483L100.886 69.389C100.962 69.9959 100.734 70.5649 100.355 71.02C99.9377 71.4752 99.3688 71.7407 98.7619 71.7407ZM95.0069 71.3614H98.7619C99.255 71.3614 99.7101 71.1717 100.052 70.7924C100.393 70.4131 100.545 69.958 100.507 69.4649L98.9895 53.7242C98.9136 52.8138 98.155 52.169 97.2447 52.169H94.6276L95.0069 71.3614Z" fill="#4B5364"/>
<path d="M95.0447 77.6193H89.2415C89.1277 77.6193 89.0518 77.5434 89.0518 77.4297L86.1312 48.186C85.8657 45.7206 87.5346 43.4448 89.9621 43.0276L94.2861 42.269C94.324 42.269 94.3999 42.269 94.4378 42.3069C94.4757 42.3449 94.5137 42.3828 94.5137 42.4587L95.2723 77.4297C95.2723 77.4676 95.2723 77.5434 95.2343 77.5814C95.1964 77.6193 95.1205 77.6193 95.0447 77.6193ZM89.4311 77.24H94.893L94.1344 42.6862L90.038 43.4069C87.8001 43.8241 86.245 45.9102 86.5105 48.1481L89.4311 77.24Z" fill="#4B5364"/>
<path d="M64.6252 41.018C64.5873 41.018 64.5873 41.018 64.5494 41.018L25.3303 40.6387C25.2165 40.6387 25.1406 40.5628 25.1406 40.449C25.1406 40.3352 25.2165 40.2594 25.3303 40.2594L64.5494 40.6387C65.27 40.6387 65.9149 40.5249 66.5597 40.3352L70.3905 39.0456C70.9595 38.856 71.5663 38.7422 72.1732 38.7043L80.1384 38.3629C80.2522 38.3629 80.3281 38.4388 80.3281 38.5146C80.3281 38.6284 80.2522 38.7043 80.1763 38.7043L72.2111 39.0456C71.6422 39.0836 71.0733 39.1594 70.5043 39.3491L66.6734 40.6387C66.0286 40.9042 65.3459 41.018 64.6252 41.018Z" fill="#4B5364"/>
<path d="M26.3161 92.1848H20.9301C20.5128 92.1848 20.1335 91.8434 20.1335 91.3882V89.4918C20.1335 89.0745 20.4749 88.6952 20.9301 88.6952H26.3161C26.7333 88.6952 27.1126 89.0366 27.1126 89.4918V91.3882C27.0747 91.8434 26.7333 92.1848 26.3161 92.1848Z" fill="#4B5364"/>
<path d="M26.3163 92.3741H20.9303C20.3992 92.3741 19.9441 91.919 19.9441 91.3879V89.4915C19.9441 88.9605 20.3992 88.5053 20.9303 88.5053H26.3163C26.8473 88.5053 27.3024 88.9605 27.3024 89.4915V91.3879C27.3024 91.9569 26.8473 92.3741 26.3163 92.3741ZM20.9303 88.9225C20.6268 88.9225 20.3613 89.188 20.3613 89.4915V91.3879C20.3613 91.6914 20.6268 91.9569 20.9303 91.9569H26.3163C26.6197 91.9569 26.8852 91.6914 26.8852 91.3879V89.4915C26.8852 89.188 26.6197 88.9225 26.3163 88.9225H20.9303Z" fill="#4B5364"/>
<path d="M23.6236 90.7435C24.1546 90.7435 24.6098 90.2883 24.6098 89.7573V83.0059C24.6098 82.4748 24.1546 82.0197 23.6236 82.0197C23.0926 82.0197 22.6375 82.4748 22.6375 83.0059V89.7194C22.6375 90.2883 23.0926 90.7435 23.6236 90.7435Z" fill="#4B5364"/>
<path d="M23.6234 90.971C22.9407 90.971 22.4097 90.44 22.4097 89.7573V83.0058C22.4097 82.3231 22.9407 81.7921 23.6234 81.7921C24.3061 81.7921 24.8372 82.3231 24.8372 83.0058V89.7194C24.8372 90.4021 24.3061 90.971 23.6234 90.971ZM23.6234 82.2473C23.2062 82.2473 22.8648 82.5886 22.8648 83.0058V89.7194C22.8648 90.1366 23.2062 90.478 23.6234 90.478C24.0406 90.478 24.382 90.1366 24.382 89.7194V82.9679C24.382 82.5886 24.0406 82.2473 23.6234 82.2473Z" fill="#4B5364"/>
<path d="M24.5716 83.233H23.9268C21.9924 83.233 20.4373 81.6779 20.4373 79.7435V62.9408C20.4373 62.0305 21.1958 61.2719 22.1062 61.2719H24.7612C25.6715 61.2719 26.4301 62.0305 26.4301 62.9408V81.3745C26.3922 82.3986 25.5577 83.233 24.5716 83.233Z" fill="#4B5364"/>
<path d="M24.5716 83.4233H23.9268C21.8786 83.4233 20.2097 81.7544 20.2097 79.7062V62.9034C20.2097 61.8794 21.0442 61.0449 22.0683 61.0449H24.7233C25.7474 61.0449 26.5819 61.8794 26.5819 62.9034V81.3751C26.6198 82.513 25.6716 83.4233 24.5716 83.4233ZM22.1062 61.4621C21.3097 61.4621 20.6649 62.1069 20.6649 62.9034V79.7062C20.6649 81.5268 22.1441 83.0061 23.9647 83.0061H24.6095C25.5199 83.0061 26.2405 82.2854 26.2405 81.3751V62.9034C26.2405 62.1069 25.5957 61.4621 24.7992 61.4621H22.1062Z" fill="#4B5364"/>
<path d="M266.79 141.228H266.372V128.976H254.121V128.559H266.79V141.228Z" fill="#4B5364"/>
<path d="M316.477 134.78H316.06V128.976H307.222V128.559H316.477V134.78Z" fill="#4B5364"/>
<path d="M129.105 143.313H126.147V143.73H129.105V143.313Z" fill="#4B5364"/>
<path d="M130.585 139.028H126.564V139.445H130.585V139.028Z" fill="#4B5364"/>
<path d="M98.2306 145.248H93.6411V145.665H98.2306V145.248Z" fill="#4B5364"/>
</svg>
