<svg width="361" height="197" viewBox="0 0 361 197" fill="none" xmlns="http://www.w3.org/2000/svg">
<g clip-path="url(#clip0_1379_795)">
<path d="M340.479 119.284H288.233C287.946 119.284 287.695 119.033 287.695 118.745C287.695 118.458 287.946 118.207 288.233 118.207H339.905L339.726 107.442C339.726 107.155 339.941 106.904 340.264 106.904C340.551 106.904 340.802 107.155 340.802 107.442L340.982 118.781C340.982 118.925 340.946 119.068 340.838 119.176C340.766 119.248 340.623 119.284 340.479 119.284Z" fill="#4B5364"/>
<path d="M78.9598 86.6656H48.8894V88.7109H78.9598V86.6656Z" fill="#4B5364"/>
<path d="M48.6383 86.6656H9.59692V88.7109H48.6383V86.6656Z" fill="#4B5364"/>
<path d="M263.365 154.091C253.067 154.091 244.67 145.694 244.67 135.396C244.67 125.097 253.067 116.7 263.365 116.7C273.664 116.7 282.061 125.097 282.061 135.396C282.061 145.694 273.664 154.091 263.365 154.091ZM263.365 117.777C253.641 117.777 245.747 125.671 245.747 135.396C245.747 145.12 253.641 153.014 263.365 153.014C273.09 153.014 280.984 145.12 280.984 135.396C280.984 125.671 273.09 117.777 263.365 117.777Z" fill="#4B5364"/>
<path d="M263.365 147.811C256.512 147.811 250.95 142.249 250.95 135.395C250.95 128.542 256.512 122.98 263.365 122.98C270.219 122.98 275.781 128.542 275.781 135.395C275.781 142.249 270.219 147.811 263.365 147.811ZM263.365 124.056C257.122 124.056 252.026 129.152 252.026 135.395C252.026 141.639 257.122 146.735 263.365 146.735C269.609 146.735 274.705 141.639 274.705 135.395C274.705 129.152 269.609 124.056 263.365 124.056Z" fill="#4B5364"/>
<path d="M263.365 144.689C258.234 144.689 254.072 140.527 254.072 135.396C254.072 130.264 258.234 126.102 263.365 126.102C268.497 126.102 272.659 130.264 272.659 135.396C272.659 140.527 268.497 144.689 263.365 144.689ZM263.365 126.461C258.449 126.461 254.43 130.479 254.43 135.396C254.43 140.312 258.449 144.331 263.365 144.331C268.282 144.331 272.301 140.312 272.301 135.396C272.301 130.479 268.282 126.461 263.365 126.461Z" fill="#4B5364"/>
<path d="M263.366 138.625C261.571 138.625 260.136 137.19 260.136 135.396C260.136 133.601 261.571 132.166 263.366 132.166C265.16 132.166 266.595 133.601 266.595 135.396C266.595 137.19 265.16 138.625 263.366 138.625ZM263.366 132.525C261.787 132.525 260.495 133.817 260.495 135.396C260.495 136.974 261.787 138.266 263.366 138.266C264.944 138.266 266.236 136.974 266.236 135.396C266.236 133.817 264.944 132.525 263.366 132.525Z" fill="#4B5364"/>
<path d="M263.365 130.085C262.827 130.085 262.397 129.654 262.397 129.116C262.397 128.578 262.827 128.147 263.365 128.147C263.904 128.147 264.334 128.578 264.334 129.116C264.334 129.654 263.904 130.085 263.365 130.085ZM263.365 128.506C263.042 128.506 262.755 128.793 262.755 129.116C262.755 129.439 263.042 129.726 263.365 129.726C263.688 129.726 263.975 129.439 263.975 129.116C263.975 128.757 263.688 128.506 263.365 128.506Z" fill="#4B5364"/>
<path d="M263.365 142.644C262.827 142.644 262.397 142.213 262.397 141.675C262.397 141.137 262.827 140.706 263.365 140.706C263.904 140.706 264.334 141.137 264.334 141.675C264.334 142.213 263.904 142.644 263.365 142.644ZM263.365 141.065C263.042 141.065 262.755 141.352 262.755 141.675C262.755 141.998 263.042 142.285 263.365 142.285C263.688 142.285 263.975 141.998 263.975 141.675C263.975 141.352 263.688 141.065 263.365 141.065Z" fill="#4B5364"/>
<path d="M260.208 130.91C260.136 130.91 260.028 130.91 259.957 130.874C259.705 130.802 259.49 130.659 259.382 130.408C259.131 129.941 259.275 129.331 259.741 129.08C260.208 128.829 260.818 128.972 261.069 129.439C261.32 129.905 261.177 130.515 260.71 130.767C260.567 130.874 260.387 130.91 260.208 130.91ZM260.208 129.331C260.1 129.331 259.992 129.367 259.885 129.403C259.598 129.582 259.49 129.941 259.67 130.228C259.741 130.372 259.885 130.479 260.028 130.515C260.172 130.551 260.351 130.551 260.495 130.444C260.638 130.372 260.746 130.228 260.782 130.085C260.818 129.941 260.818 129.762 260.71 129.618C260.638 129.439 260.423 129.331 260.208 129.331Z" fill="#4B5364"/>
<path d="M266.523 141.819C266.2 141.819 265.877 141.639 265.698 141.316C265.447 140.85 265.59 140.24 266.057 139.989C266.523 139.737 267.133 139.881 267.384 140.347C267.636 140.814 267.492 141.424 267.026 141.675C266.846 141.783 266.667 141.819 266.523 141.819ZM266.487 140.24C266.38 140.24 266.272 140.276 266.164 140.312C265.877 140.491 265.77 140.85 265.949 141.137C266.129 141.424 266.487 141.532 266.774 141.352C267.062 141.173 267.169 140.814 266.99 140.527C266.918 140.347 266.703 140.24 266.487 140.24Z" fill="#4B5364"/>
<path d="M257.911 133.207C257.732 133.207 257.588 133.171 257.445 133.063C256.978 132.812 256.835 132.202 257.086 131.735C257.337 131.269 257.947 131.125 258.414 131.376C258.88 131.628 259.024 132.238 258.772 132.704C258.557 133.027 258.234 133.207 257.911 133.207ZM257.911 131.628C257.875 131.628 257.804 131.628 257.768 131.664C257.624 131.699 257.481 131.807 257.409 131.951C257.229 132.238 257.337 132.632 257.624 132.776C257.911 132.955 258.306 132.848 258.449 132.561C258.629 132.274 258.521 131.879 258.234 131.735C258.127 131.664 258.019 131.628 257.911 131.628Z" fill="#4B5364"/>
<path d="M268.82 139.522C268.64 139.522 268.497 139.486 268.317 139.379C268.102 139.235 267.923 139.056 267.851 138.804C267.779 138.553 267.815 138.302 267.959 138.051C268.21 137.584 268.82 137.441 269.286 137.692C269.502 137.836 269.681 138.015 269.753 138.266C269.825 138.517 269.789 138.769 269.645 139.02C269.502 139.235 269.322 139.414 269.071 139.486C268.963 139.486 268.892 139.522 268.82 139.522ZM268.82 137.907C268.784 137.907 268.712 137.907 268.676 137.943C268.533 137.979 268.389 138.087 268.317 138.23C268.246 138.374 268.21 138.553 268.246 138.697C268.282 138.84 268.389 138.984 268.533 139.056C268.676 139.127 268.856 139.163 268.999 139.127C269.143 139.092 269.286 138.984 269.358 138.84C269.43 138.697 269.466 138.517 269.43 138.374C269.394 138.23 269.286 138.087 269.143 138.015C269.035 137.943 268.927 137.907 268.82 137.907Z" fill="#4B5364"/>
<path d="M257.086 136.364C256.548 136.364 256.117 135.934 256.117 135.395C256.117 134.857 256.548 134.427 257.086 134.427C257.624 134.427 258.055 134.857 258.055 135.395C258.055 135.934 257.624 136.364 257.086 136.364ZM257.086 134.785C256.763 134.785 256.476 135.073 256.476 135.395C256.476 135.718 256.763 136.005 257.086 136.005C257.409 136.005 257.696 135.718 257.696 135.395C257.696 135.037 257.409 134.785 257.086 134.785Z" fill="#4B5364"/>
<path d="M269.645 136.364C269.107 136.364 268.676 135.934 268.676 135.395C268.676 134.857 269.107 134.427 269.645 134.427C270.183 134.427 270.614 134.857 270.614 135.395C270.614 135.934 270.183 136.364 269.645 136.364ZM269.645 134.785C269.322 134.785 269.035 135.073 269.035 135.395C269.035 135.718 269.322 136.005 269.645 136.005C269.968 136.005 270.255 135.718 270.255 135.395C270.255 135.037 270.004 134.785 269.645 134.785Z" fill="#4B5364"/>
<path d="M257.911 139.522C257.839 139.522 257.732 139.522 257.66 139.486C257.409 139.414 257.194 139.271 257.086 139.02C256.942 138.804 256.906 138.517 256.978 138.266C257.05 138.015 257.194 137.8 257.445 137.692C257.66 137.549 257.947 137.513 258.198 137.584C258.449 137.656 258.665 137.8 258.772 138.051C258.916 138.266 258.952 138.553 258.88 138.804C258.808 139.056 258.665 139.271 258.414 139.379C258.234 139.45 258.091 139.522 257.911 139.522ZM257.911 137.907C257.804 137.907 257.696 137.943 257.588 137.979C257.445 138.051 257.337 138.194 257.301 138.338C257.265 138.482 257.265 138.661 257.373 138.804C257.445 138.948 257.588 139.056 257.732 139.092C257.875 139.127 258.055 139.127 258.198 139.02C258.342 138.948 258.449 138.804 258.485 138.661C258.521 138.517 258.521 138.338 258.414 138.194C258.342 138.051 258.198 137.943 258.055 137.907C258.019 137.943 257.983 137.907 257.911 137.907Z" fill="#4B5364"/>
<path d="M268.82 133.207C268.497 133.207 268.174 133.027 267.994 132.704C267.743 132.238 267.887 131.628 268.353 131.377C268.569 131.233 268.856 131.197 269.107 131.269C269.358 131.341 269.573 131.484 269.681 131.735C269.824 131.951 269.86 132.238 269.789 132.489C269.717 132.74 269.573 132.955 269.322 133.063C269.143 133.171 268.963 133.207 268.82 133.207ZM268.497 131.699C268.21 131.879 268.102 132.238 268.282 132.525C268.461 132.812 268.82 132.92 269.107 132.74C269.25 132.668 269.358 132.525 269.394 132.381C269.43 132.238 269.43 132.058 269.322 131.915C269.25 131.771 269.107 131.664 268.963 131.628C268.82 131.628 268.64 131.628 268.497 131.699Z" fill="#4B5364"/>
<path d="M260.208 141.819C260.028 141.819 259.885 141.783 259.741 141.675C259.275 141.424 259.131 140.814 259.382 140.347C259.634 139.881 260.244 139.737 260.71 139.989C261.177 140.24 261.32 140.85 261.069 141.316C260.89 141.639 260.567 141.819 260.208 141.819ZM259.67 140.527C259.49 140.814 259.598 141.209 259.885 141.352C260.172 141.532 260.567 141.424 260.71 141.137C260.89 140.85 260.782 140.455 260.495 140.312C260.244 140.132 259.849 140.24 259.67 140.527Z" fill="#4B5364"/>
<path d="M266.487 130.91C266.308 130.91 266.164 130.874 266.021 130.767C265.554 130.515 265.411 129.905 265.662 129.439C265.806 129.224 265.985 129.044 266.236 128.972C266.487 128.901 266.739 128.936 266.99 129.08C267.205 129.224 267.384 129.403 267.456 129.654C267.528 129.905 267.492 130.157 267.349 130.408C267.205 130.623 267.026 130.802 266.774 130.874C266.667 130.91 266.595 130.91 266.487 130.91ZM265.985 129.654C265.913 129.798 265.877 129.977 265.913 130.121C265.949 130.264 266.057 130.408 266.2 130.479C266.344 130.551 266.523 130.587 266.667 130.551C266.81 130.515 266.954 130.408 267.026 130.264C267.097 130.121 267.133 129.941 267.097 129.798C267.061 129.654 266.954 129.511 266.81 129.439C266.667 129.367 266.487 129.331 266.344 129.367C266.2 129.403 266.057 129.511 265.985 129.654Z" fill="#4B5364"/>
<path d="M215.425 154.091C205.126 154.091 196.73 145.694 196.73 135.396C196.73 125.097 205.126 116.7 215.425 116.7C225.724 116.7 234.12 125.097 234.12 135.396C234.12 145.694 225.76 154.091 215.425 154.091ZM215.425 117.777C205.701 117.777 197.806 125.671 197.806 135.396C197.806 145.12 205.701 153.014 215.425 153.014C225.15 153.014 233.044 145.12 233.044 135.396C233.044 125.671 225.15 117.777 215.425 117.777Z" fill="#4B5364"/>
<path d="M215.425 147.811C208.571 147.811 203.009 142.249 203.009 135.395C203.009 128.542 208.571 122.98 215.425 122.98C222.279 122.98 227.841 128.542 227.841 135.395C227.841 142.249 222.279 147.811 215.425 147.811ZM215.425 124.056C209.181 124.056 204.086 129.152 204.086 135.395C204.086 141.639 209.181 146.735 215.425 146.735C221.669 146.735 226.764 141.639 226.764 135.395C226.764 129.152 221.705 124.056 215.425 124.056Z" fill="#4B5364"/>
<path d="M215.425 144.689C210.294 144.689 206.131 140.527 206.131 135.396C206.131 130.264 210.294 126.102 215.425 126.102C220.556 126.102 224.719 130.264 224.719 135.396C224.719 140.527 220.556 144.689 215.425 144.689ZM215.425 126.461C210.509 126.461 206.49 130.479 206.49 135.396C206.49 140.312 210.509 144.331 215.425 144.331C220.341 144.331 224.36 140.312 224.36 135.396C224.36 130.479 220.377 126.461 215.425 126.461Z" fill="#4B5364"/>
<path d="M215.425 138.625C213.631 138.625 212.196 137.19 212.196 135.396C212.196 133.601 213.631 132.166 215.425 132.166C217.219 132.166 218.655 133.601 218.655 135.396C218.655 137.19 217.219 138.625 215.425 138.625ZM215.425 132.525C213.846 132.525 212.554 133.817 212.554 135.396C212.554 136.974 213.846 138.266 215.425 138.266C217.004 138.266 218.296 136.974 218.296 135.396C218.296 133.817 217.004 132.525 215.425 132.525Z" fill="#4B5364"/>
<path d="M215.425 130.085C214.887 130.085 214.456 129.654 214.456 129.116C214.456 128.578 214.887 128.147 215.425 128.147C215.963 128.147 216.394 128.578 216.394 129.116C216.394 129.654 215.963 130.085 215.425 130.085ZM215.425 128.506C215.102 128.506 214.815 128.793 214.815 129.116C214.815 129.439 215.102 129.726 215.425 129.726C215.748 129.726 216.035 129.439 216.035 129.116C216.035 128.757 215.784 128.506 215.425 128.506Z" fill="#4B5364"/>
<path d="M215.425 142.644C214.887 142.644 214.456 142.213 214.456 141.675C214.456 141.137 214.887 140.706 215.425 140.706C215.963 140.706 216.394 141.137 216.394 141.675C216.394 142.213 215.963 142.644 215.425 142.644ZM215.425 141.065C215.102 141.065 214.815 141.352 214.815 141.675C214.815 141.998 215.102 142.285 215.425 142.285C215.748 142.285 216.035 141.998 216.035 141.675C216.035 141.352 215.784 141.065 215.425 141.065Z" fill="#4B5364"/>
<path d="M212.303 130.91C212.232 130.91 212.124 130.91 212.052 130.874C211.801 130.802 211.586 130.659 211.478 130.408C211.334 130.192 211.299 129.905 211.37 129.654C211.442 129.403 211.586 129.188 211.837 129.08C212.088 128.972 212.339 128.901 212.59 128.972C212.842 129.044 213.057 129.188 213.165 129.439C213.308 129.654 213.344 129.941 213.272 130.192C213.2 130.444 213.057 130.659 212.806 130.767C212.626 130.874 212.447 130.91 212.303 130.91ZM212.303 129.331C212.196 129.331 212.088 129.367 211.98 129.403C211.837 129.475 211.729 129.618 211.693 129.762C211.657 129.905 211.657 130.085 211.765 130.228C211.837 130.372 211.98 130.479 212.124 130.515C212.267 130.551 212.447 130.551 212.59 130.444C212.734 130.372 212.842 130.228 212.877 130.085C212.913 129.941 212.913 129.762 212.806 129.618C212.734 129.475 212.59 129.367 212.447 129.331C212.411 129.331 212.339 129.331 212.303 129.331Z" fill="#4B5364"/>
<path d="M218.583 141.819C218.26 141.819 217.937 141.639 217.758 141.316C217.506 140.85 217.65 140.24 218.116 139.989C218.583 139.737 219.193 139.881 219.444 140.347C219.695 140.814 219.552 141.424 219.085 141.675C218.906 141.783 218.762 141.819 218.583 141.819ZM218.583 140.24C218.475 140.24 218.368 140.276 218.26 140.312C217.973 140.491 217.865 140.85 218.045 141.137C218.224 141.424 218.583 141.532 218.87 141.352C219.157 141.173 219.265 140.814 219.085 140.527C219.013 140.347 218.798 140.24 218.583 140.24Z" fill="#4B5364"/>
<path d="M209.971 133.207C209.791 133.207 209.648 133.171 209.504 133.063C209.038 132.812 208.894 132.202 209.145 131.735C209.397 131.269 210.007 131.125 210.473 131.376C210.94 131.628 211.083 132.238 210.832 132.704C210.653 133.027 210.33 133.207 209.971 133.207ZM209.971 131.628C209.756 131.628 209.54 131.735 209.433 131.951C209.253 132.238 209.361 132.632 209.648 132.776C209.935 132.955 210.33 132.848 210.473 132.561C210.653 132.274 210.545 131.879 210.258 131.735C210.186 131.664 210.078 131.628 209.971 131.628Z" fill="#4B5364"/>
<path d="M220.879 139.522C220.7 139.522 220.556 139.486 220.413 139.379C220.198 139.235 220.018 139.056 219.946 138.804C219.875 138.553 219.911 138.302 220.054 138.051C220.305 137.584 220.915 137.441 221.382 137.692C221.597 137.836 221.776 138.015 221.848 138.266C221.92 138.517 221.884 138.769 221.741 139.02C221.597 139.235 221.418 139.414 221.166 139.486C221.059 139.486 220.951 139.522 220.879 139.522ZM220.879 137.907C220.844 137.907 220.772 137.907 220.736 137.943C220.592 137.979 220.449 138.087 220.377 138.23C220.305 138.374 220.269 138.553 220.305 138.697C220.341 138.84 220.449 138.984 220.592 139.056C220.736 139.127 220.915 139.163 221.059 139.127C221.202 139.092 221.346 138.984 221.418 138.84C221.489 138.697 221.525 138.517 221.489 138.374C221.454 138.23 221.346 138.087 221.202 138.015C221.095 137.943 220.987 137.907 220.879 137.907Z" fill="#4B5364"/>
<path d="M209.145 136.364C208.607 136.364 208.177 135.934 208.177 135.395C208.177 134.857 208.607 134.427 209.145 134.427C209.684 134.427 210.114 134.857 210.114 135.395C210.114 135.934 209.684 136.364 209.145 136.364ZM209.145 134.785C208.823 134.785 208.535 135.073 208.535 135.395C208.535 135.718 208.823 136.005 209.145 136.005C209.468 136.005 209.756 135.718 209.756 135.395C209.756 135.037 209.468 134.785 209.145 134.785Z" fill="#4B5364"/>
<path d="M221.741 136.364C221.202 136.364 220.772 135.934 220.772 135.395C220.772 134.857 221.202 134.427 221.741 134.427C222.279 134.427 222.709 134.857 222.709 135.395C222.709 135.934 222.243 136.364 221.741 136.364ZM221.741 134.785C221.418 134.785 221.131 135.073 221.131 135.395C221.131 135.718 221.418 136.005 221.741 136.005C222.064 136.005 222.351 135.718 222.351 135.395C222.351 135.037 222.064 134.785 221.741 134.785Z" fill="#4B5364"/>
<path d="M209.971 139.522C209.648 139.522 209.325 139.343 209.145 139.02C208.894 138.553 209.038 137.943 209.504 137.692C209.971 137.441 210.581 137.584 210.832 138.051C211.083 138.517 210.94 139.127 210.473 139.379C210.33 139.45 210.15 139.522 209.971 139.522ZM209.971 137.907C209.863 137.907 209.756 137.943 209.648 137.979C209.504 138.051 209.397 138.194 209.361 138.338C209.325 138.481 209.325 138.661 209.433 138.804C209.612 139.092 209.971 139.199 210.258 139.02C210.545 138.84 210.653 138.481 210.473 138.194C210.401 138.051 210.186 137.907 209.971 137.907Z" fill="#4B5364"/>
<path d="M220.879 133.207C220.556 133.207 220.233 133.027 220.054 132.704C219.803 132.238 219.946 131.628 220.413 131.377C220.628 131.233 220.915 131.197 221.166 131.269C221.418 131.341 221.633 131.484 221.741 131.735C221.884 131.951 221.92 132.238 221.848 132.489C221.776 132.74 221.633 132.955 221.382 133.063C221.202 133.171 221.059 133.207 220.879 133.207ZM220.556 131.699C220.269 131.879 220.162 132.238 220.341 132.525C220.521 132.812 220.879 132.92 221.166 132.74C221.31 132.668 221.418 132.525 221.454 132.381C221.489 132.238 221.489 132.058 221.382 131.915C221.31 131.771 221.166 131.664 221.023 131.628C220.879 131.628 220.7 131.628 220.556 131.699Z" fill="#4B5364"/>
<path d="M212.303 141.819C212.124 141.819 211.98 141.783 211.837 141.675C211.37 141.424 211.227 140.814 211.478 140.347C211.729 139.881 212.339 139.737 212.806 139.989C213.272 140.24 213.416 140.85 213.164 141.316C212.949 141.639 212.626 141.819 212.303 141.819ZM212.303 140.24C212.088 140.24 211.873 140.347 211.765 140.563C211.586 140.85 211.693 141.244 211.98 141.388C212.124 141.46 212.303 141.496 212.447 141.46C212.59 141.424 212.734 141.316 212.806 141.173C212.985 140.886 212.877 140.491 212.59 140.347C212.483 140.24 212.375 140.24 212.303 140.24Z" fill="#4B5364"/>
<path d="M218.583 130.91C218.403 130.91 218.26 130.874 218.116 130.767C217.65 130.515 217.506 129.905 217.758 129.439C217.901 129.224 218.08 129.044 218.332 128.972C218.583 128.901 218.834 128.936 219.085 129.08C219.301 129.224 219.48 129.403 219.552 129.654C219.624 129.905 219.588 130.157 219.444 130.408C219.229 130.731 218.906 130.91 218.583 130.91ZM218.045 129.654C217.865 129.941 217.973 130.336 218.26 130.479C218.403 130.551 218.583 130.587 218.726 130.551C218.87 130.515 219.013 130.408 219.085 130.264C219.157 130.121 219.193 129.941 219.157 129.798C219.121 129.654 219.013 129.511 218.87 129.439C218.583 129.259 218.224 129.331 218.045 129.654Z" fill="#4B5364"/>
<path d="M50.8629 154.091C40.5644 154.091 32.1676 145.694 32.1676 135.396C32.1676 125.097 40.5644 116.7 50.8629 116.7C61.1615 116.7 69.5583 125.097 69.5583 135.396C69.5583 145.694 61.1615 154.091 50.8629 154.091ZM50.8629 117.777C41.1385 117.777 33.2441 125.671 33.2441 135.396C33.2441 145.12 41.1385 153.014 50.8629 153.014C60.5874 153.014 68.4818 145.12 68.4818 135.396C68.4818 125.671 60.5874 117.777 50.8629 117.777Z" fill="#4B5364"/>
<path d="M50.863 147.811C44.0092 147.811 38.4473 142.249 38.4473 135.395C38.4473 128.542 44.0092 122.98 50.863 122.98C57.7167 122.98 63.2787 128.542 63.2787 135.395C63.2787 142.249 57.7167 147.811 50.863 147.811ZM50.863 124.056C44.6192 124.056 39.5238 129.152 39.5238 135.395C39.5238 141.639 44.6192 146.735 50.863 146.735C57.1067 146.735 62.2022 141.639 62.2022 135.395C62.2022 129.152 57.1426 124.056 50.863 124.056Z" fill="#4B5364"/>
<path d="M50.8629 144.689C45.7316 144.689 41.5691 140.527 41.5691 135.396C41.5691 130.264 45.7316 126.102 50.8629 126.102C55.9943 126.102 60.1568 130.264 60.1568 135.396C60.1568 140.527 55.9943 144.689 50.8629 144.689ZM50.8629 126.461C45.9469 126.461 41.9279 130.479 41.9279 135.396C41.9279 140.312 45.9469 144.331 50.8629 144.331C55.779 144.331 59.7979 140.312 59.7979 135.396C59.7979 130.479 55.779 126.461 50.8629 126.461Z" fill="#4B5364"/>
<path d="M50.8629 138.625C49.0688 138.625 47.6334 137.19 47.6334 135.396C47.6334 133.601 49.0688 132.166 50.8629 132.166C52.6571 132.166 54.0925 133.601 54.0925 135.396C54.0925 137.19 52.6571 138.625 50.8629 138.625ZM50.8629 132.525C49.2841 132.525 47.9923 133.817 47.9923 135.396C47.9923 136.974 49.2841 138.266 50.8629 138.266C52.4418 138.266 53.7336 136.974 53.7336 135.396C53.7336 133.817 52.4418 132.525 50.8629 132.525Z" fill="#4B5364"/>
<path d="M50.863 130.085C50.3248 130.085 49.8942 129.654 49.8942 129.116C49.8942 128.578 50.3248 128.147 50.863 128.147C51.4013 128.147 51.8319 128.578 51.8319 129.116C51.8319 129.654 51.4013 130.085 50.863 130.085ZM50.863 128.506C50.5401 128.506 50.253 128.793 50.253 129.116C50.253 129.439 50.5401 129.726 50.863 129.726C51.186 129.726 51.473 129.439 51.473 129.116C51.473 128.757 51.2219 128.506 50.863 128.506Z" fill="#4B5364"/>
<path d="M50.863 142.644C50.3248 142.644 49.8942 142.213 49.8942 141.675C49.8942 141.137 50.3248 140.706 50.863 140.706C51.4013 140.706 51.8319 141.137 51.8319 141.675C51.8319 142.213 51.4013 142.644 50.863 142.644ZM50.863 141.065C50.5401 141.065 50.253 141.352 50.253 141.675C50.253 141.998 50.5401 142.285 50.863 142.285C51.186 142.285 51.473 141.998 51.473 141.675C51.473 141.352 51.2219 141.065 50.863 141.065Z" fill="#4B5364"/>
<path d="M47.7411 130.91C47.6693 130.91 47.5617 130.91 47.4899 130.874C47.2387 130.802 47.0234 130.659 46.9157 130.408C46.7722 130.192 46.7363 129.905 46.8081 129.654C46.8799 129.403 47.0234 129.188 47.2746 129.08C47.4899 128.936 47.777 128.901 48.0281 128.972C48.2793 129.044 48.4946 129.188 48.6023 129.439C48.8535 129.905 48.7099 130.515 48.2434 130.767C48.064 130.874 47.8846 130.91 47.7411 130.91ZM47.7052 129.331C47.5975 129.331 47.4899 129.367 47.3822 129.403C47.2387 129.475 47.131 129.618 47.0952 129.762C47.0593 129.905 47.0593 130.085 47.1669 130.228C47.2387 130.372 47.3822 130.479 47.5258 130.515C47.6693 130.551 47.8487 130.551 47.9923 130.444C48.1358 130.372 48.2434 130.228 48.2793 130.085C48.3152 129.941 48.3152 129.762 48.2076 129.618C48.1358 129.475 47.9923 129.367 47.8487 129.331C47.8128 129.331 47.777 129.331 47.7052 129.331Z" fill="#4B5364"/>
<path d="M54.0207 141.819C53.6978 141.819 53.3748 141.639 53.1595 141.316C52.9083 140.85 53.0519 140.24 53.5184 139.989C53.9849 139.737 54.5949 139.881 54.8461 140.347C55.0973 140.814 54.9537 141.424 54.4872 141.675C54.3437 141.783 54.1643 141.819 54.0207 141.819ZM54.0207 140.24C53.9131 140.24 53.8054 140.276 53.6978 140.312C53.4107 140.491 53.3031 140.85 53.4825 141.137C53.6619 141.424 54.0207 141.532 54.3078 141.352C54.5949 141.173 54.7025 140.814 54.5231 140.527C54.4155 140.347 54.236 140.24 54.0207 140.24Z" fill="#4B5364"/>
<path d="M45.4087 133.207C45.2293 133.207 45.0857 133.171 44.9422 133.063C44.7269 132.92 44.5475 132.74 44.4757 132.489C44.4039 132.238 44.4398 131.987 44.5834 131.735C44.7269 131.52 44.9063 131.341 45.1575 131.269C45.4087 131.197 45.6599 131.233 45.911 131.377C46.3775 131.628 46.5211 132.238 46.2699 132.704C46.0905 133.027 45.7675 133.207 45.4087 133.207ZM45.4087 131.628C45.3728 131.628 45.301 131.628 45.2651 131.664C45.1216 131.699 44.9781 131.807 44.9063 131.951C44.8345 132.094 44.7987 132.274 44.8345 132.417C44.8704 132.561 44.9781 132.704 45.1216 132.776C45.4087 132.955 45.8034 132.848 45.9469 132.561C46.1264 132.274 46.0187 131.879 45.7316 131.735C45.624 131.664 45.5163 131.628 45.4087 131.628Z" fill="#4B5364"/>
<path d="M56.3172 139.522C56.1378 139.522 55.9943 139.486 55.8149 139.379C55.5996 139.235 55.4201 139.056 55.3484 138.804C55.2766 138.553 55.3125 138.302 55.456 138.051C55.5996 137.836 55.779 137.656 56.0302 137.584C56.2814 137.513 56.5325 137.549 56.7837 137.692C56.999 137.836 57.1785 138.015 57.2502 138.266C57.322 138.517 57.2861 138.769 57.1426 139.02C56.999 139.235 56.8196 139.414 56.5684 139.486C56.4967 139.486 56.389 139.522 56.3172 139.522ZM56.3172 137.907C56.2814 137.907 56.2096 137.907 56.1737 137.943C56.0302 137.979 55.8866 138.087 55.8149 138.23C55.7431 138.374 55.7072 138.553 55.7431 138.697C55.779 138.84 55.8866 138.984 56.0302 139.056C56.1737 139.127 56.3531 139.163 56.4967 139.127C56.6402 139.092 56.7837 138.984 56.8555 138.84C56.9273 138.697 56.9631 138.517 56.9273 138.374C56.8914 138.23 56.7837 138.087 56.6402 138.015C56.5325 137.943 56.4249 137.907 56.3172 137.907Z" fill="#4B5364"/>
<path d="M44.5834 136.364C44.0451 136.364 43.6145 135.934 43.6145 135.395C43.6145 134.857 44.0451 134.427 44.5834 134.427C45.1216 134.427 45.5522 134.857 45.5522 135.395C45.5522 135.934 45.1216 136.364 44.5834 136.364ZM44.5834 134.785C44.2604 134.785 43.9733 135.073 43.9733 135.395C43.9733 135.718 44.2604 136.005 44.5834 136.005C44.9063 136.005 45.1934 135.718 45.1934 135.395C45.1934 135.037 44.9063 134.785 44.5834 134.785Z" fill="#4B5364"/>
<path d="M57.1426 136.364C56.6043 136.364 56.1737 135.934 56.1737 135.395C56.1737 134.857 56.6043 134.427 57.1426 134.427C57.6808 134.427 58.1114 134.857 58.1114 135.395C58.1473 135.934 57.6808 136.364 57.1426 136.364ZM57.1426 134.785C56.8196 134.785 56.5325 135.073 56.5325 135.395C56.5325 135.718 56.8196 136.005 57.1426 136.005C57.4655 136.005 57.7526 135.718 57.7526 135.395C57.7885 135.037 57.5014 134.785 57.1426 134.785Z" fill="#4B5364"/>
<path d="M45.4087 139.522C45.3369 139.522 45.2293 139.522 45.1575 139.486C44.9063 139.414 44.691 139.271 44.5834 139.02C44.4398 138.804 44.4039 138.517 44.4757 138.266C44.5475 138.015 44.691 137.8 44.9422 137.692C45.4087 137.441 46.0187 137.584 46.2699 138.051C46.4134 138.266 46.4493 138.553 46.3775 138.804C46.3058 139.056 46.1622 139.271 45.911 139.379C45.7675 139.45 45.5881 139.522 45.4087 139.522ZM45.1216 138.015C44.9781 138.087 44.8704 138.23 44.8345 138.374C44.7987 138.517 44.7986 138.697 44.9063 138.84C44.9781 138.984 45.1216 139.092 45.2651 139.127C45.4087 139.163 45.5881 139.163 45.7316 139.056C45.8752 138.984 45.9828 138.84 46.0187 138.697C46.0546 138.553 46.0546 138.374 45.9469 138.23C45.8752 138.087 45.7316 137.979 45.5881 137.943C45.4087 137.907 45.2651 137.907 45.1216 138.015Z" fill="#4B5364"/>
<path d="M56.3173 133.207C55.9943 133.207 55.6713 133.027 55.4919 132.704C55.2407 132.238 55.3843 131.628 55.8508 131.376C56.3173 131.125 56.9273 131.269 57.1785 131.735C57.4296 132.202 57.2861 132.812 56.8196 133.063C56.6402 133.171 56.4967 133.207 56.3173 133.207ZM55.9943 131.699C55.7072 131.879 55.5996 132.238 55.779 132.525C55.9584 132.812 56.3173 132.919 56.6043 132.74C56.8914 132.561 56.999 132.202 56.8196 131.915C56.7479 131.771 56.6043 131.664 56.4608 131.628C56.3173 131.628 56.1378 131.628 55.9943 131.699Z" fill="#4B5364"/>
<path d="M47.7052 141.819C47.5258 141.819 47.3822 141.783 47.2387 141.675C46.7722 141.424 46.6287 140.814 46.8799 140.347C47.1311 139.881 47.7411 139.737 48.2076 139.989C48.6741 140.24 48.8176 140.85 48.5664 141.316C48.387 141.639 48.064 141.819 47.7052 141.819ZM47.2028 140.527C47.0234 140.814 47.1311 141.209 47.4181 141.352C47.7052 141.532 48.0999 141.424 48.2435 141.137C48.4229 140.85 48.3152 140.455 48.0281 140.312C47.7411 140.132 47.3464 140.24 47.2028 140.527Z" fill="#4B5364"/>
<path d="M54.0208 130.91C53.8413 130.91 53.6978 130.874 53.5543 130.767C53.0878 130.515 52.9442 129.905 53.1954 129.439C53.4466 128.972 54.0566 128.829 54.5231 129.08C54.9896 129.331 55.1331 129.941 54.882 130.408C54.7384 130.623 54.559 130.802 54.3078 130.874C54.1643 130.91 54.0925 130.91 54.0208 130.91ZM53.4825 129.654C53.4107 129.798 53.3748 129.977 53.4107 130.121C53.4466 130.264 53.5543 130.408 53.6978 130.479C53.8413 130.551 54.0207 130.587 54.1643 130.551C54.3078 130.515 54.4514 130.408 54.5231 130.264C54.7025 129.977 54.5949 129.582 54.3078 129.439C54.0207 129.259 53.6619 129.331 53.4825 129.654Z" fill="#4B5364"/>
<path d="M24.955 131.377C24.8474 131.377 24.7756 131.341 24.7038 131.305C24.5244 131.197 24.4167 131.018 24.4167 130.838L24.4526 117.705C24.4526 107.263 32.9929 98.6508 43.435 98.5072L48.1717 98.4355L78.4215 98.2561C78.5651 98.2561 78.7086 98.3278 78.8162 98.3996C78.9239 98.5072 78.9598 98.6508 78.9598 98.7943V104.643C78.9598 106.007 77.8474 107.083 76.5197 107.083H48.6023C38.4113 107.083 29.7993 115.014 28.9381 125.169L28.6151 128.972C28.6151 129.152 28.5075 129.295 28.3639 129.403L25.278 131.269C25.1344 131.341 25.0268 131.377 24.955 131.377ZM77.8474 99.3684L48.1358 99.5479L43.3992 99.6196C33.5312 99.7273 25.4933 107.873 25.4933 117.741V129.905L27.5386 128.685L27.8257 125.169C28.2563 119.966 30.6246 115.121 34.4641 111.605C38.3037 108.052 43.3274 106.115 48.5305 106.115H76.4479C77.2015 106.115 77.8115 105.505 77.8115 104.751V99.3684H77.8474Z" fill="#4B5364"/>
<path d="M24.8832 122.585H10.9604C10.8528 122.585 10.781 122.513 10.781 122.406V120.432C10.781 120.324 10.8528 120.253 10.9604 120.253H24.8832C24.9909 120.253 25.0627 120.324 25.0627 120.432V122.406C25.0627 122.513 24.9909 122.585 24.8832 122.585ZM11.104 122.226H24.7038V120.611H11.104V122.226Z" fill="#4B5364"/>
<path d="M24.8832 131.018H10.9604C10.8528 131.018 10.781 130.946 10.781 130.838V128.865C10.781 128.757 10.8528 128.685 10.9604 128.685H24.8832C24.9909 128.685 25.0627 128.757 25.0627 128.865V130.838C25.0627 130.946 24.9909 131.018 24.8832 131.018ZM11.104 130.659H24.7038V129.044H11.104V130.659Z" fill="#4B5364"/>
<path d="M10.9604 131.018H9.13035C9.02269 131.018 8.95093 130.946 8.95093 130.838V115.588C8.95093 115.552 8.95093 115.516 8.98681 115.48L10.3504 113.578V111.318C10.3504 111.21 10.4222 111.138 10.5298 111.138C10.6375 111.138 10.7092 111.21 10.7092 111.318V113.65C10.7092 113.686 10.7092 113.722 10.6733 113.758L9.30976 115.66V130.659H10.781V115.66C10.781 115.624 10.781 115.588 10.8169 115.588L11.6422 113.937V111.461C11.6422 111.354 11.714 111.282 11.8216 111.282C11.9293 111.282 12.001 111.354 12.001 111.461V113.973C12.001 114.009 12.001 114.045 11.9651 114.045L11.1398 115.695V130.802C11.1398 130.946 11.0322 131.018 10.9604 131.018Z" fill="#4B5364"/>
<path d="M8.48453 135.503H6.04445C4.71676 135.503 3.60437 134.427 3.60437 133.063V116.844C3.60437 116.557 3.85556 116.305 4.14262 116.305H9.2022C9.48927 116.305 9.74045 116.557 9.74045 116.844V134.247C9.74045 134.965 9.16632 135.503 8.48453 135.503ZM4.68088 117.418V133.099C4.68088 133.852 5.29089 134.463 6.04445 134.463H8.48453C8.59218 134.463 8.66395 134.391 8.66395 134.283V117.418H4.68088Z" fill="#4B5364"/>
<path d="M4.14252 117.418C3.99899 117.418 3.89134 117.382 3.78368 117.274C3.56838 117.095 3.5325 116.736 3.7478 116.521L7.55146 112.251C7.73088 112.035 8.0897 111.999 8.30501 112.215C8.52031 112.394 8.55619 112.753 8.34089 112.968L4.53723 117.238C4.42958 117.346 4.28605 117.418 4.14252 117.418Z" fill="#4B5364"/>
<path d="M10.494 110.421H7.9104V113.65H10.494V110.421Z" fill="#4B5364"/>
<path d="M9.59682 110.959C9.30975 110.959 9.05856 110.708 9.05856 110.42V93.8423C6.65437 94.0935 4.78842 96.1388 4.78842 98.6148V108.842C4.78842 109.416 5.25491 109.882 5.82904 109.882H7.9103C8.19737 109.882 8.44855 110.133 8.44855 110.42C8.44855 110.708 8.19737 110.959 7.9103 110.959H5.82904C4.64488 110.959 3.71191 109.99 3.71191 108.842V98.6507C3.71191 95.4211 6.33141 92.7658 9.59682 92.7658C9.88389 92.7658 10.1351 93.0169 10.1351 93.304V110.42C10.1351 110.743 9.88389 110.959 9.59682 110.959Z" fill="#4B5364"/>
<path d="M26.0675 111.497H10.5299C10.4222 111.497 10.3505 111.425 10.3505 111.318C10.3505 111.21 10.4222 111.138 10.5299 111.138H26.0675C26.1751 111.138 26.2469 111.21 26.2469 111.318C26.2469 111.425 26.1751 111.497 26.0675 111.497Z" fill="#4B5364"/>
<path d="M78.2063 99.7271H9.77629C9.48922 99.7271 9.23804 99.476 9.23804 99.1889C9.23804 98.9018 9.48922 98.6506 9.77629 98.6506H78.2063C78.4933 98.6506 78.7445 98.9018 78.7445 99.1889C78.7445 99.476 78.4933 99.7271 78.2063 99.7271Z" fill="#4B5364"/>
<path d="M48.7099 99.4401C48.4229 99.4401 48.1717 99.1889 48.1717 98.9018V56.1286C48.1717 55.2315 47.454 54.5138 46.5569 54.5138H21.2231C17.563 54.5138 14.4052 57.1333 13.7593 60.7217L11.2116 74.6445C10.4939 78.5917 10.1351 82.6466 10.1351 86.6655V93.304C10.1351 93.591 9.88392 93.8422 9.59685 93.8422C9.30978 93.8422 9.05859 93.591 9.05859 93.304V86.6655C9.05859 82.5748 9.41743 78.4841 10.171 74.4651L12.7187 60.5423C13.4723 56.4157 17.0606 53.4373 21.259 53.4373H46.5928C48.064 53.4373 49.2841 54.6574 49.2841 56.1286V98.9018C49.2482 99.2248 48.997 99.4401 48.7099 99.4401Z" fill="#4B5364"/>
<path d="M17.4913 83.149C16.7377 83.149 16.0201 82.8619 15.4459 82.3596C14.7283 81.7495 14.3336 80.8524 14.3694 79.9195L14.8 63.5207C14.9077 59.8964 17.8143 57.0257 21.4385 56.954L41.1027 56.5593C42.0716 56.5593 42.9328 56.8822 43.6146 57.564C44.2963 58.2458 44.6552 59.107 44.6552 60.0759L44.5834 75.757C44.5834 77.4794 43.3275 78.9506 41.6051 79.2377L17.9937 83.1131C17.8501 83.149 17.6707 83.149 17.4913 83.149ZM41.1386 57.6717H41.1027L21.4385 58.0664C18.3884 58.1381 15.9483 60.5423 15.8765 63.5924L15.4459 79.9912C15.4459 80.6013 15.6971 81.1754 16.1636 81.606C16.6301 82.0007 17.2401 82.1801 17.8501 82.0725L41.4615 78.1971C42.6457 78.0176 43.5428 76.977 43.5428 75.757L43.6146 60.0759C43.6146 59.43 43.3634 58.784 42.8969 58.3534C42.3945 57.9228 41.7845 57.6717 41.1386 57.6717Z" fill="#4B5364"/>
<path d="M78.3856 99.7272C78.0986 99.7272 77.8474 99.476 77.8474 99.1889C77.8474 98.9019 78.0627 98.6866 78.3498 98.6507C78.4933 98.543 78.7086 98.0765 78.7086 97.8253L78.3498 51.3202C78.3498 50.5308 78.0268 49.8131 77.4885 49.2749C76.9144 48.7366 76.1967 48.4137 75.4073 48.4495L22.3355 49.1313C17.7424 49.2031 13.6517 52.325 12.4675 56.7745L7.19263 76.1875C6.25965 79.6683 5.75728 83.2925 5.7214 86.8809L5.64963 95.6364C5.64963 95.9235 5.39844 96.1747 5.11137 96.1747C4.82431 96.1747 4.57312 95.9235 4.57312 95.6364L4.64489 86.8809C4.68078 83.1848 5.18314 79.4888 6.152 75.9005L11.4269 56.4875C12.7546 51.5714 17.24 48.0907 22.3355 48.0548L75.4073 47.373H75.4432C76.4838 47.373 77.4886 47.7678 78.2421 48.5213C78.9957 49.2749 79.4263 50.2796 79.4263 51.3561L79.7851 97.8612C79.7851 98.3277 79.5339 99.0454 79.1392 99.4401C78.8521 99.6554 78.565 99.7272 78.3856 99.7272Z" fill="#4B5364"/>
<path d="M11.9293 56.2004H7.98215C7.8745 56.2004 7.80273 56.1286 7.80273 56.021C7.80273 53.9038 8.62805 51.9661 10.0993 50.459C11.6064 48.9878 13.58 48.1625 15.6612 48.1984L20.6849 48.2342C20.7926 48.2342 20.8644 48.306 20.8644 48.4137C20.8644 48.5213 20.7926 48.5931 20.6849 48.5931L15.6612 48.5572C13.6518 48.5572 11.7499 49.3107 10.3505 50.7102C8.95101 52.0738 8.19745 53.9038 8.12568 55.8416H11.8935C12.0011 55.8416 12.0729 55.9133 12.0729 56.021C12.0729 56.1286 12.037 56.2004 11.9293 56.2004Z" fill="#4B5364"/>
<path d="M4.42963 61.0089H1.59483C1.09246 61.0089 0.625971 60.7577 0.303018 60.363C0.0159499 59.9324 -0.091703 59.43 0.0877148 58.9635L1.27188 55.2675C1.30776 55.1957 1.37953 55.1598 1.4513 55.1598H5.82909C5.93674 55.1598 6.0085 55.2316 6.0085 55.3393V59.4659C6.0085 60.2912 5.32672 61.0089 4.42963 61.0089ZM1.59483 55.4828L0.446551 59.0353C0.3389 59.43 0.374783 59.8247 0.625968 60.1477C0.84127 60.4706 1.236 60.65 1.63072 60.65H4.46552C5.1473 60.65 5.68555 60.1118 5.68555 59.43V55.4828H1.59483Z" fill="#4B5364"/>
<path d="M11.5346 53.3658C11.5346 53.7964 11.2475 54.1552 10.8528 54.2628L2.92256 56.5953L15.6612 61.3678L15.3742 62.7673L0.913086 57.1694L1.63076 55.1958L10.3505 52.5046C10.9605 52.2893 11.5346 52.7557 11.5346 53.3658Z" fill="#4B5364"/>
<path d="M15.3742 62.9466C15.3383 62.9466 15.3383 62.9466 15.3024 62.9466L0.841312 57.3129C0.769545 57.277 0.697782 57.1694 0.733666 57.0976L1.45134 55.124C1.48722 55.0881 1.5231 55.0164 1.55898 55.0164L10.2787 52.2892C10.6016 52.1816 10.9605 52.2533 11.2475 52.4686C11.5346 52.6839 11.714 53.0069 11.714 53.3657C11.714 53.8681 11.3911 54.2987 10.9246 54.4422L3.49669 56.6311L15.733 61.2242C15.8048 61.2601 15.8765 61.3319 15.8406 61.4395L15.5536 62.839C15.5536 62.8749 15.5177 62.9466 15.4818 62.9466C15.4459 62.9466 15.41 62.9466 15.3742 62.9466ZM1.12838 57.0617L15.2665 62.5519L15.4818 61.5113L2.88668 56.7747C2.81491 56.7388 2.77902 56.667 2.77902 56.5952C2.77902 56.5235 2.8149 56.4517 2.92256 56.4158L10.8528 54.0834C11.1758 53.9757 11.3911 53.6887 11.3911 53.3657C11.3911 53.1145 11.2834 52.8992 11.0681 52.7557C10.8887 52.6122 10.6375 52.5763 10.3863 52.648L1.7384 55.3393L1.12838 57.0617Z" fill="#4B5364"/>
<path d="M90.1914 69.6927C89.9043 69.6927 89.6531 69.4415 89.6531 69.1545L89.2943 49.4544C89.2943 48.1626 88.2178 47.0861 86.926 47.0861L66.1494 46.7631C65.9341 46.7631 65.7547 46.7631 65.5393 46.7631L26.9286 48.9879C26.6416 48.9879 26.3904 48.7726 26.3545 48.4855C26.3545 48.1985 26.5698 47.9473 26.8569 47.9114L65.5035 45.6866C65.7188 45.6866 65.97 45.6866 66.1853 45.6866L86.9618 46.0096C88.8278 46.0455 90.3708 47.5884 90.3708 49.4544L90.7296 69.1545C90.7296 69.4415 90.4784 69.6927 90.1914 69.6927Z" fill="#4B5364"/>
<path d="M78.888 51.4638C78.8163 51.4638 78.7086 51.3921 78.7086 51.3203C78.7086 51.2126 78.7804 51.1409 78.8522 51.105L89.7967 49.5979C89.9043 49.5979 89.9761 49.6697 90.0119 49.7414C90.0119 49.8491 89.9402 49.9208 89.8684 49.9567L78.888 51.4638Z" fill="#4B5364"/>
<path d="M78.888 53.9757C78.8163 53.9757 78.7086 53.9039 78.7086 53.8321C78.7086 53.7245 78.7804 53.6527 78.8522 53.6168L89.7967 52.1097C89.9043 52.1097 89.9761 52.1815 90.0119 52.2533C90.0119 52.3609 89.9402 52.4327 89.8684 52.4686L78.888 53.9757Z" fill="#4B5364"/>
<path d="M78.888 56.4875C78.8163 56.4875 78.7086 56.4158 78.7086 56.344C78.7086 56.2363 78.7804 56.1646 78.8522 56.1287L89.7967 54.6216C89.9043 54.6216 89.9761 54.6934 90.0119 54.7651C90.0119 54.8728 89.9402 54.9445 89.8684 54.9804L78.888 56.4875Z" fill="#4B5364"/>
<path d="M78.888 60.4347C78.8163 60.4347 78.7086 60.363 78.7086 60.2912C78.7086 60.1835 78.7804 60.1118 78.8522 60.0759L89.7967 58.5688C89.9043 58.5688 89.9761 58.6406 90.0119 58.7123C90.0119 58.82 89.9402 58.8917 89.8684 58.9276L78.888 60.4347Z" fill="#4B5364"/>
<path d="M78.8881 73.3528C78.8163 73.3528 78.7445 73.3169 78.7086 73.2451C78.6728 73.1375 78.7086 73.0657 78.8163 72.994L89.7608 68.2573C89.8684 68.2214 89.9402 68.2573 90.012 68.365C90.0479 68.4726 90.012 68.5444 89.9043 68.6162L78.9598 73.3169C78.924 73.3528 78.9239 73.3528 78.8881 73.3528Z" fill="#4B5364"/>
<path d="M78.8881 79.0942C78.8163 79.0942 78.7445 79.0583 78.7086 78.9865C78.6728 78.8789 78.7086 78.8071 78.8163 78.7353L89.7608 73.9987C89.8684 73.9628 89.9402 73.9987 90.012 74.1063C90.0479 74.214 90.012 74.2858 89.9043 74.3575L78.9598 79.0583C78.924 79.0942 78.9239 79.0942 78.8881 79.0942Z" fill="#4B5364"/>
<path d="M75.3714 48.0189C75.2638 48.0189 75.192 47.9472 75.192 47.8395C75.192 47.7319 75.2638 47.6601 75.3355 47.6601L87.2489 46.4759C87.3565 46.4759 87.4283 46.5477 87.4283 46.6195C87.4283 46.7271 87.3566 46.7989 87.2848 46.7989L75.3714 48.0189Z" fill="#4B5364"/>
<path d="M79.1393 84.4767C79.0675 84.4767 78.9958 84.4408 78.9599 84.369C78.924 84.2614 78.9599 84.1896 79.0675 84.1178L89.8326 79.3453C89.9402 79.3094 90.012 79.3453 90.0838 79.453C90.1197 79.5606 90.0838 79.6324 89.9761 79.7041L79.2111 84.4767C79.1752 84.4767 79.1752 84.4767 79.1393 84.4767Z" fill="#4B5364"/>
<path d="M79.2469 96.2106C79.1752 96.2106 79.0675 96.1388 79.0675 96.067C79.0675 95.9594 79.1034 95.8876 79.211 95.8517L79.9287 95.7441C80.7899 95.6006 81.4358 94.9547 81.6152 94.0935L82.8353 87.5268C83.0147 86.522 83.6965 85.6249 84.6295 85.1943L85.1677 84.9431C85.5983 84.7278 86.1366 84.7278 86.5672 84.9431C86.9978 85.1584 87.3566 85.5532 87.4643 86.0196L88.3972 89.3927C88.6125 90.1821 89.3302 90.7204 90.1196 90.7204C90.2273 90.7204 90.2991 90.7922 90.2991 90.8998C90.2991 91.0075 90.2273 91.0792 90.1196 91.0792C89.1508 91.0792 88.3255 90.4333 88.0384 89.5004L87.1054 86.1273C86.9978 85.7685 86.7466 85.4455 86.3878 85.2661C86.0289 85.0867 85.6342 85.1226 85.2754 85.2661L84.7371 85.5173C83.9118 85.912 83.3018 86.7014 83.1582 87.5985L81.9382 94.1652C81.7588 95.17 80.9693 95.9235 79.9646 96.1029L79.2469 96.2106Z" fill="#4B5364"/>
<path d="M69.1278 78.1253H56.6762C54.8461 78.1253 53.3749 76.6541 53.3749 74.824V59.1788C53.3749 57.3487 54.8461 55.8775 56.6762 55.8775H69.1278C70.9578 55.8775 72.4291 57.3487 72.4291 59.1788V74.824C72.4291 76.6182 70.9578 78.1253 69.1278 78.1253ZM56.6762 56.954C55.4561 56.954 54.4514 57.9588 54.4514 59.1788V74.824C54.4514 76.0441 55.4561 77.0488 56.6762 77.0488H69.1278C70.3478 77.0488 71.3526 76.0441 71.3526 74.824V59.1788C71.3526 57.9588 70.3478 56.954 69.1278 56.954H56.6762Z" fill="#4B5364"/>
<path d="M45.6599 96.6411H38.6267C38.0884 96.6411 37.6937 96.2105 37.6937 95.7082V93.6628C37.6937 93.1246 38.1243 92.7298 38.6267 92.7298H45.6599C46.1981 92.7298 46.5928 93.1604 46.5928 93.6628V95.7082C46.5928 96.2105 46.1981 96.6411 45.6599 96.6411Z" fill="#4B5364"/>
<path d="M45.7317 105.971H41.5333C41.318 105.971 41.1385 105.791 41.1385 105.576V104.248C41.1385 104.033 41.318 103.854 41.5333 103.854H45.7317C45.947 103.854 46.1264 104.033 46.1264 104.248V105.576C46.1264 105.827 45.947 105.971 45.7317 105.971Z" fill="#4B5364"/>
<path d="M99.557 110.097H95.3586C95.1433 110.097 94.9639 109.918 94.9639 109.703V108.375C94.9639 108.16 95.1433 107.98 95.3586 107.98H99.557C99.7723 107.98 99.9517 108.16 99.9517 108.375V109.703C99.9517 109.918 99.7723 110.097 99.557 110.097Z" fill="#4B5364"/>
<path d="M191.778 110.097H187.579C187.364 110.097 187.185 109.918 187.185 109.703V108.375C187.185 108.16 187.364 107.98 187.579 107.98H191.778C191.993 107.98 192.173 108.16 192.173 108.375V109.703C192.137 109.918 191.957 110.097 191.778 110.097Z" fill="#4B5364"/>
<path d="M343.027 110.097H338.829C338.613 110.097 338.434 109.918 338.434 109.703V108.375C338.434 108.16 338.613 107.98 338.829 107.98H343.027C343.242 107.98 343.422 108.16 343.422 108.375V109.703C343.422 109.918 343.242 110.097 343.027 110.097Z" fill="#4B5364"/>
<path d="M76.0891 145.048C76.0532 145.048 76.0532 145.048 76.0173 145.048C75.9456 145.012 75.9097 144.941 75.9097 144.869V137.62H72.7519C72.6443 137.62 72.5725 137.549 72.5725 137.441V135.037C72.5725 121.724 61.7716 110.923 48.4588 110.923C41.2103 110.923 34.3924 114.152 29.7993 119.75C29.7275 119.822 29.6199 119.822 29.5481 119.786C29.4763 119.714 29.4763 119.607 29.5122 119.535C34.1771 113.829 41.1026 110.564 48.4588 110.564C61.951 110.564 72.9313 121.544 72.9313 135.037V137.261H76.0891C76.1968 137.261 76.2685 137.333 76.2685 137.441V144.474L80.3951 140.455V124.846H76.0173C75.9097 124.846 75.8379 124.774 75.8379 124.666C75.8379 124.559 75.9097 124.487 76.0173 124.487H80.5746C80.6822 124.487 80.754 124.559 80.754 124.666V140.527C80.754 140.563 80.7181 140.634 80.6822 140.67L76.1968 145.012C76.1968 145.048 76.125 145.048 76.0891 145.048Z" fill="#4B5364"/>
<path d="M68.1947 141.496C68.1589 141.496 68.0871 141.46 68.0871 141.424C68.0153 141.352 68.0512 141.245 68.123 141.209L72.6802 137.333C72.752 137.262 72.8596 137.297 72.8955 137.369C72.9673 137.441 72.9314 137.549 72.8596 137.584L68.3024 141.46C68.2665 141.46 68.2306 141.496 68.1947 141.496Z" fill="#4B5364"/>
<path d="M28.041 129.116C27.9693 129.116 27.9334 129.08 27.8975 129.044C27.8616 128.972 27.8975 128.865 27.9693 128.829L31.0911 127.035C31.127 127.035 31.127 126.999 31.1629 126.999H34.3924C34.5001 126.999 34.5718 127.07 34.5718 127.178C34.5718 127.286 34.5001 127.357 34.3924 127.357H31.1988L28.1128 129.116C28.0769 129.116 28.041 129.116 28.041 129.116Z" fill="#4B5364"/>
<path d="M86.8901 133.278C86.8542 133.278 86.8542 133.278 86.8183 133.278C86.7466 133.243 86.7107 133.171 86.7107 133.099V127.071C86.7107 126.64 86.3519 126.281 85.9213 126.281H84.2347C83.6247 126.281 83.0506 126.604 82.7635 127.142L80.8976 131.269C80.8617 131.377 80.754 131.412 80.6464 131.377C80.5387 131.341 80.5028 131.233 80.5387 131.125L82.4047 126.999C82.7635 126.317 83.4453 125.922 84.1989 125.922H85.8854C86.5313 125.922 87.0337 126.461 87.0337 127.071V132.704L89.7608 130.228V124.272C89.7608 124.164 89.8326 124.092 89.9402 124.092C90.0479 124.092 90.1196 124.164 90.1196 124.272V130.3C90.1196 130.336 90.0838 130.408 90.0479 130.444L86.9619 133.243C86.9978 133.243 86.9619 133.278 86.8901 133.278Z" fill="#4B5364"/>
<path d="M90.2632 106.868H88.1461C88.0384 106.868 87.9666 106.796 87.9666 106.689V101.952H85.5983C85.5625 101.952 85.4907 101.916 85.4548 101.88L84.6654 100.947C83.7683 99.9066 83.8759 98.3636 84.8807 97.4306C84.9165 97.3947 84.9524 97.3947 84.9883 97.3947H90.012C90.1197 97.3947 90.1914 97.4665 90.1914 97.5741C90.1914 97.6818 90.1197 97.7535 90.012 97.7535H85.1677C84.3424 98.5789 84.2706 99.8707 85.0242 100.768L85.7419 101.629H88.182C88.2896 101.629 88.3614 101.701 88.3614 101.808V106.545H90.2991C90.4067 106.545 90.4785 106.617 90.4785 106.724C90.4785 106.832 90.3709 106.868 90.2632 106.868Z" fill="#4B5364"/>
<path d="M87.5359 101.952H86.4236C86.3159 101.952 86.2441 101.88 86.2441 101.773V97.5741C86.2441 97.4665 86.3159 97.3947 86.4236 97.3947H87.5359C87.6436 97.3947 87.7154 97.4665 87.7154 97.5741V101.773C87.7154 101.844 87.6436 101.952 87.5359 101.952ZM86.5671 101.593H87.3565V97.7177H86.5671V101.593Z" fill="#4B5364"/>
<path d="M96.5786 124.774H84.9882C83.8758 124.774 82.9788 123.877 82.9788 122.764V117.705C82.9788 116.592 83.8758 115.695 84.9882 115.695H96.5786C97.691 115.695 98.5881 116.592 98.5881 117.705V122.764C98.624 123.877 97.691 124.774 96.5786 124.774ZM85.0241 116.772C84.5217 116.772 84.0911 117.202 84.0911 117.705V122.764C84.0911 123.267 84.5217 123.697 85.0241 123.697H96.6145C97.1169 123.697 97.5475 123.267 97.5475 122.764V117.705C97.5475 117.202 97.1169 116.772 96.6145 116.772H85.0241Z" fill="#4B5364"/>
<path d="M359.462 106.94H354.976C354.689 106.94 354.438 106.689 354.438 106.402V69.1904C354.438 69.0468 354.51 68.9033 354.582 68.7956C354.653 68.688 354.833 68.6521 354.976 68.6521H359.462C359.749 68.6521 360 68.9033 360 69.1904V106.402C360 106.689 359.749 106.94 359.462 106.94ZM355.479 105.863H358.888V69.7286H355.479V105.863Z" fill="#4B5364"/>
<path d="M94.8203 106.94H90.3349C90.0478 106.94 89.7966 106.689 89.7966 106.402V69.1904C89.7966 69.0468 89.8684 68.9033 89.9402 68.7956C90.0119 68.688 90.1914 68.6521 90.3349 68.6521H94.8203C95.1074 68.6521 95.3586 68.9033 95.3586 69.1904V106.402C95.3586 106.689 95.1074 106.94 94.8203 106.94ZM90.8731 105.863H94.2821V69.7286H90.8731V105.863Z" fill="#4B5364"/>
<path d="M354.402 74.2141H94.7845C94.4974 74.2141 94.2462 73.9629 94.2462 73.6758V69.7286C94.2462 69.4415 94.4974 69.1904 94.7845 69.1904H354.402C354.689 69.1904 354.94 69.4415 354.94 69.7286V73.6758C354.94 73.9988 354.689 74.2141 354.402 74.2141ZM95.3227 73.1375H353.864V70.2669H95.3227V73.1375Z" fill="#4B5364"/>
<path d="M354.402 107.011H94.7844C94.4256 107.011 94.1027 106.724 94.1027 106.33V102.383C94.1027 102.024 94.3897 101.701 94.7844 101.701H354.402C354.761 101.701 355.084 101.988 355.084 102.383V106.33C355.084 106.724 354.761 107.011 354.402 107.011ZM95.4303 105.648H353.72V103.1H95.4303V105.648Z" fill="#4B5364"/>
<path d="M353.972 103.89H95.0356V104.966H353.972V103.89Z" fill="#4B5364"/>
<path d="M104.401 102.921C104.114 102.921 103.863 102.67 103.863 102.383V73.7475C103.863 73.4604 104.114 73.2092 104.401 73.2092C104.688 73.2092 104.94 73.4604 104.94 73.7475V102.383C104.94 102.67 104.724 102.921 104.401 102.921Z" fill="#4B5364"/>
<path d="M118.755 102.921C118.468 102.921 118.216 102.67 118.216 102.383V73.7475C118.216 73.4604 118.468 73.2092 118.755 73.2092C119.042 73.2092 119.293 73.4604 119.293 73.7475V102.383C119.293 102.67 119.078 102.921 118.755 102.921Z" fill="#4B5364"/>
<path d="M132.749 102.921C132.462 102.921 132.211 102.67 132.211 102.383V73.7475C132.211 73.4604 132.462 73.2092 132.749 73.2092C133.036 73.2092 133.288 73.4604 133.288 73.7475V102.383C133.288 102.67 133.072 102.921 132.749 102.921Z" fill="#4B5364"/>
<path d="M147.103 102.921C146.816 102.921 146.564 102.67 146.564 102.383V73.7475C146.564 73.4604 146.816 73.2092 147.103 73.2092C147.39 73.2092 147.641 73.4604 147.641 73.7475V102.383C147.641 102.67 147.426 102.921 147.103 102.921Z" fill="#4B5364"/>
<path d="M161.456 102.921C161.169 102.921 160.918 102.67 160.918 102.383V73.7475C160.918 73.4604 161.169 73.2092 161.456 73.2092C161.743 73.2092 161.994 73.4604 161.994 73.7475V102.383C161.994 102.67 161.779 102.921 161.456 102.921Z" fill="#4B5364"/>
<path d="M175.451 102.921C175.164 102.921 174.912 102.67 174.912 102.383V73.7475C174.912 73.4604 175.164 73.2092 175.451 73.2092C175.738 73.2092 175.989 73.4604 175.989 73.7475V102.383C175.989 102.67 175.774 102.921 175.451 102.921Z" fill="#4B5364"/>
<path d="M189.445 102.921C189.158 102.921 188.907 102.67 188.907 102.383V73.7475C188.907 73.4604 189.158 73.2092 189.445 73.2092C189.732 73.2092 189.984 73.4604 189.984 73.7475V102.383C189.984 102.67 189.768 102.921 189.445 102.921Z" fill="#4B5364"/>
<path d="M203.44 102.921C203.153 102.921 202.902 102.67 202.902 102.383V73.7475C202.902 73.4604 203.153 73.2092 203.44 73.2092C203.727 73.2092 203.978 73.4604 203.978 73.7475V102.383C203.978 102.67 203.763 102.921 203.44 102.921Z" fill="#4B5364"/>
<path d="M217.434 102.921C217.147 102.921 216.896 102.67 216.896 102.383V73.7475C216.896 73.4604 217.147 73.2092 217.434 73.2092C217.722 73.2092 217.973 73.4604 217.973 73.7475V102.383C217.973 102.67 217.757 102.921 217.434 102.921Z" fill="#4B5364"/>
<path d="M231.429 102.921C231.142 102.921 230.891 102.67 230.891 102.383V73.7475C230.891 73.4604 231.142 73.2092 231.429 73.2092C231.716 73.2092 231.967 73.4604 231.967 73.7475V102.383C231.967 102.67 231.752 102.921 231.429 102.921Z" fill="#4B5364"/>
<path d="M245.783 102.921C245.496 102.921 245.244 102.67 245.244 102.383V73.7475C245.244 73.4604 245.496 73.2092 245.783 73.2092C246.07 73.2092 246.321 73.4604 246.321 73.7475V102.383C246.321 102.67 246.106 102.921 245.783 102.921Z" fill="#4B5364"/>
<path d="M259.777 102.921C259.49 102.921 259.239 102.67 259.239 102.383V73.7475C259.239 73.4604 259.49 73.2092 259.777 73.2092C260.064 73.2092 260.315 73.4604 260.315 73.7475V102.383C260.315 102.67 260.1 102.921 259.777 102.921Z" fill="#4B5364"/>
<path d="M273.772 102.921C273.485 102.921 273.234 102.67 273.234 102.383V73.7475C273.234 73.4604 273.485 73.2092 273.772 73.2092C274.059 73.2092 274.31 73.4604 274.31 73.7475V102.383C274.31 102.67 274.095 102.921 273.772 102.921Z" fill="#4B5364"/>
<path d="M288.125 102.921C287.838 102.921 287.587 102.67 287.587 102.383V73.7475C287.587 73.4604 287.838 73.2092 288.125 73.2092C288.412 73.2092 288.663 73.4604 288.663 73.7475V102.383C288.663 102.67 288.448 102.921 288.125 102.921Z" fill="#4B5364"/>
<path d="M301.761 102.921C301.474 102.921 301.223 102.67 301.223 102.383V73.7475C301.223 73.4604 301.474 73.2092 301.761 73.2092C302.048 73.2092 302.299 73.4604 302.299 73.7475V102.383C302.299 102.67 302.084 102.921 301.761 102.921Z" fill="#4B5364"/>
<path d="M316.114 102.921C315.827 102.921 315.576 102.67 315.576 102.383V73.7475C315.576 73.4604 315.827 73.2092 316.114 73.2092C316.401 73.2092 316.653 73.4604 316.653 73.7475V102.383C316.653 102.67 316.437 102.921 316.114 102.921Z" fill="#4B5364"/>
<path d="M330.109 102.921C329.822 102.921 329.571 102.67 329.571 102.383V73.7475C329.571 73.4604 329.822 73.2092 330.109 73.2092C330.396 73.2092 330.647 73.4604 330.647 73.7475V102.383C330.647 102.67 330.432 102.921 330.109 102.921Z" fill="#4B5364"/>
<path d="M344.104 102.921C343.816 102.921 343.565 102.67 343.565 102.383V73.7475C343.565 73.4604 343.816 73.2092 344.104 73.2092C344.391 73.2092 344.642 73.4604 344.642 73.7475V102.383C344.642 102.67 344.427 102.921 344.104 102.921Z" fill="#4B5364"/>
<path d="M354.546 99.1889H94.8563C94.7486 99.1889 94.6769 99.1171 94.6769 99.0095C94.6769 98.9018 94.7486 98.83 94.8563 98.83H354.546C354.653 98.83 354.725 98.9018 354.725 99.0095C354.725 99.1171 354.653 99.1889 354.546 99.1889Z" fill="#4B5364"/>
<path d="M354.546 95.2417H94.8563C94.7486 95.2417 94.6769 95.1699 94.6769 95.0623C94.6769 94.9546 94.7486 94.8829 94.8563 94.8829H354.546C354.653 94.8829 354.725 94.9546 354.725 95.0623C354.725 95.1699 354.653 95.2417 354.546 95.2417Z" fill="#4B5364"/>
<path d="M354.546 91.2945H94.8563C94.7486 91.2945 94.6769 91.2227 94.6769 91.1151C94.6769 91.0074 94.7486 90.9357 94.8563 90.9357H354.546C354.653 90.9357 354.725 91.0074 354.725 91.1151C354.725 91.2227 354.653 91.2945 354.546 91.2945Z" fill="#4B5364"/>
<path d="M354.546 87.3473H94.8563C94.7486 87.3473 94.6769 87.2755 94.6769 87.1679C94.6769 87.0602 94.7486 86.9885 94.8563 86.9885H354.546C354.653 86.9885 354.725 87.0602 354.725 87.1679C354.725 87.2755 354.653 87.3473 354.546 87.3473Z" fill="#4B5364"/>
<path d="M354.546 83.4004H94.8563C94.7486 83.4004 94.6769 83.3286 94.6769 83.2209C94.6769 83.1133 94.7486 83.0415 94.8563 83.0415H354.546C354.653 83.0415 354.725 83.1133 354.725 83.2209C354.725 83.3286 354.653 83.4004 354.546 83.4004Z" fill="#4B5364"/>
<path d="M354.546 79.4529H94.8563C94.7486 79.4529 94.6769 79.3812 94.6769 79.2735C94.6769 79.1658 94.7486 79.0941 94.8563 79.0941H354.546C354.653 79.0941 354.725 79.1658 354.725 79.2735C354.725 79.3812 354.653 79.4529 354.546 79.4529Z" fill="#4B5364"/>
<path d="M354.546 75.5057H94.8563C94.7486 75.5057 94.6769 75.434 94.6769 75.3263C94.6769 75.2187 94.7486 75.1469 94.8563 75.1469H354.546C354.653 75.1469 354.725 75.2187 354.725 75.3263C354.725 75.434 354.653 75.5057 354.546 75.5057Z" fill="#4B5364"/>
<path d="M354.402 69.9438H354.366L332.047 65.3149H102.679L93.4567 68.9391C93.385 68.975 93.2773 68.9391 93.2414 68.8673L91.9855 66.4631C91.9855 66.4272 91.9496 66.3914 91.9496 66.3914V46.8707C91.9496 46.7631 92.0214 46.6913 92.1291 46.6913L104.186 45.7224V44.3947L90.0837 44.933V54.2986C90.0837 54.4063 90.0119 54.478 89.9043 54.478C89.7966 54.478 89.7249 54.4063 89.7249 54.2986V44.7536C89.7249 44.6459 89.7966 44.5742 89.9043 44.5742L104.365 44C104.401 44 104.473 44 104.509 44.0359C104.545 44.0718 104.581 44.1077 104.581 44.1794V45.866C104.581 45.9736 104.509 46.0454 104.401 46.0454L92.3444 47.0142V66.3196L93.5285 68.5085L102.643 64.9201C102.679 64.9201 102.679 64.9201 102.715 64.9201H332.154H332.19L354.51 69.5491C354.617 69.585 354.653 69.6568 354.653 69.7644C354.546 69.8721 354.474 69.9438 354.402 69.9438Z" fill="#4B5364"/>
<path d="M331.975 69.3338C331.867 69.3338 331.796 69.262 331.796 69.1544V65.1354C331.796 65.0278 331.867 64.956 331.975 64.956C332.083 64.956 332.154 65.0278 332.154 65.1354V69.1544C332.154 69.262 332.083 69.3338 331.975 69.3338Z" fill="#4B5364"/>
<path d="M106.77 65.2072H102.284C102.177 65.2072 102.105 65.1354 102.105 65.0278V46.0095C102.105 45.9018 102.177 45.83 102.284 45.83C102.392 45.83 102.464 45.9018 102.464 46.0095V64.8483H106.16L103.935 63.3053C103.899 63.2695 103.863 63.2336 103.863 63.1618V45.9377C103.863 45.83 103.935 45.7583 104.042 45.7583C104.15 45.7583 104.222 45.83 104.222 45.9377V63.0542L106.841 64.8842C106.913 64.9201 106.949 65.0278 106.913 65.0995C106.913 65.1713 106.841 65.2072 106.77 65.2072Z" fill="#4B5364"/>
<path d="M92.165 60.4347C92.1291 60.4347 92.0933 60.4347 92.0574 60.3988C92.0215 60.3629 91.9856 60.2911 91.9856 60.2552L92.165 58.5687C92.165 58.4969 92.2368 58.4252 92.3086 58.4252L102.248 56.1645C102.284 56.1645 102.356 56.1645 102.392 56.2004C102.428 56.2363 102.464 56.2722 102.464 56.3439V57.851C102.464 57.9228 102.392 57.9946 102.32 58.0305L92.2009 60.4705C92.165 60.4347 92.165 60.4347 92.165 60.4347ZM92.488 58.7122L92.3444 60.0041L102.069 57.6716V56.5233L92.488 58.7122Z" fill="#4B5364"/>
<path d="M90.4785 124.559C90.3708 124.559 90.2991 124.487 90.2991 124.379V116.341C90.2991 116.234 90.3708 116.162 90.4785 116.162C90.5861 116.162 90.6579 116.234 90.6579 116.341V124.379C90.6579 124.487 90.5503 124.559 90.4785 124.559Z" fill="#4B5364"/>
<path d="M97.0093 124.451C96.9376 124.451 96.9017 124.415 96.8658 124.379C96.794 124.307 96.8299 124.2 96.9017 124.128L100.275 121.796C100.346 121.76 100.418 121.76 100.454 121.796C100.526 121.832 100.562 121.903 100.562 121.939V123.805H109.748C109.856 123.805 109.927 123.877 109.927 123.985C109.927 124.092 109.856 124.164 109.748 124.164H100.382C100.275 124.164 100.203 124.092 100.203 123.985V122.262L97.117 124.415C97.0811 124.451 97.0452 124.451 97.0093 124.451Z" fill="#4B5364"/>
<path d="M156.038 129.977H111.004C109.82 129.977 108.815 129.008 108.815 127.788V114.87C108.815 113.686 109.784 112.681 111.004 112.681H156.038C157.222 112.681 158.227 113.65 158.227 114.87V127.788C158.227 129.008 157.222 129.977 156.038 129.977ZM111.004 113.794C110.394 113.794 109.891 114.296 109.891 114.906V127.824C109.891 128.434 110.394 128.936 111.004 128.936H156.038C156.648 128.936 157.15 128.434 157.15 127.824V114.906C157.15 114.296 156.648 113.794 156.038 113.794H111.004Z" fill="#4B5364"/>
<path d="M122.738 113.507H120.405V133.171H122.738V113.507Z" fill="#4B5364"/>
<path d="M122.774 133.35H120.441C120.334 133.35 120.262 133.278 120.262 133.171V113.507C120.262 113.399 120.334 113.327 120.441 113.327H122.774C122.881 113.327 122.953 113.399 122.953 113.507V133.171C122.917 133.278 122.845 133.35 122.774 133.35ZM120.585 132.991H122.558V113.686H120.585V132.991Z" fill="#4B5364"/>
<path d="M146.636 113.507H144.304V133.171H146.636V113.507Z" fill="#4B5364"/>
<path d="M146.636 133.35H144.304C144.196 133.35 144.124 133.278 144.124 133.171V113.507C144.124 113.399 144.196 113.327 144.304 113.327H146.636C146.744 113.327 146.816 113.399 146.816 113.507V133.171C146.816 133.278 146.744 133.35 146.636 133.35ZM144.447 132.991H146.421V113.686H144.447V132.991Z" fill="#4B5364"/>
<path d="M122.774 133.35C122.738 133.35 122.702 133.35 122.666 133.314C122.594 133.242 122.558 133.135 122.63 133.063L125.142 129.403C125.214 129.331 125.321 129.295 125.393 129.367C125.465 129.439 125.501 129.546 125.429 129.618L122.917 133.278C122.881 133.314 122.81 133.35 122.774 133.35Z" fill="#4B5364"/>
<path d="M146.636 133.35C146.6 133.35 146.564 133.35 146.564 133.314C146.493 133.278 146.457 133.171 146.493 133.063L148.538 129.403C148.574 129.331 148.682 129.295 148.789 129.331C148.897 129.367 148.897 129.475 148.861 129.582L146.816 133.242C146.744 133.314 146.708 133.35 146.636 133.35Z" fill="#4B5364"/>
<path d="M128.515 112.394C129.526 112.394 130.345 111.575 130.345 110.564C130.345 109.553 129.526 108.734 128.515 108.734C127.504 108.734 126.685 109.553 126.685 110.564C126.685 111.575 127.504 112.394 128.515 112.394Z" fill="#4B5364"/>
<path d="M128.515 112.573C127.403 112.573 126.506 111.676 126.506 110.564C126.506 109.452 127.403 108.555 128.515 108.555C129.627 108.555 130.525 109.452 130.525 110.564C130.525 111.676 129.627 112.573 128.515 112.573ZM128.515 108.913C127.618 108.913 126.864 109.667 126.864 110.564C126.864 111.461 127.618 112.215 128.515 112.215C129.412 112.215 130.166 111.461 130.166 110.564C130.166 109.667 129.412 108.913 128.515 108.913Z" fill="#4B5364"/>
<path d="M109.389 122.119H100.418C100.311 122.119 100.239 122.047 100.239 121.939V106.832C100.239 106.725 100.311 106.653 100.418 106.653C100.526 106.653 100.598 106.725 100.598 106.832V121.76H109.389C109.497 121.76 109.568 121.832 109.568 121.939C109.568 122.047 109.461 122.119 109.389 122.119Z" fill="#4B5364"/>
<path d="M84.4858 116.305C84.3782 116.305 84.3064 116.234 84.3064 116.126V112.753C84.3064 112.645 84.3782 112.574 84.4858 112.574H96.9374C97.0451 112.574 97.1168 112.645 97.1168 112.753V116.018C97.1168 116.126 97.0451 116.198 96.9374 116.198C96.8298 116.198 96.758 116.126 96.758 116.018V112.932H84.6652V116.126C84.6652 116.234 84.5576 116.305 84.4858 116.305Z" fill="#4B5364"/>
<path d="M188.476 125.025L157.76 119.966C157.652 119.966 157.617 119.858 157.617 119.786C157.617 119.714 157.724 119.643 157.796 119.643L188.369 124.666L191.455 119.033H157.76C157.652 119.033 157.581 118.961 157.581 118.853C157.581 118.746 157.652 118.674 157.76 118.674H191.742C191.814 118.674 191.85 118.71 191.885 118.746C191.921 118.781 191.921 118.853 191.885 118.925L188.62 124.918C188.584 124.989 188.548 125.025 188.476 125.025Z" fill="#4B5364"/>
<path d="M197.914 130.444C197.878 130.444 197.842 130.444 197.806 130.444L157.545 123.626C157.258 123.59 157.042 123.303 157.114 123.016C157.15 122.729 157.437 122.513 157.724 122.585L197.986 129.403C198.273 129.439 198.488 129.726 198.416 130.013C198.416 130.264 198.201 130.444 197.914 130.444Z" fill="#4B5364"/>
<path d="M188.692 128.183C188.656 128.183 188.62 128.183 188.62 128.147C188.548 128.111 188.512 128.004 188.548 127.932L200.928 106.15C200.964 106.079 201.072 106.043 201.143 106.079C201.215 106.115 201.251 106.222 201.215 106.294L188.835 128.075C188.799 128.147 188.728 128.183 188.692 128.183Z" fill="#4B5364"/>
<path d="M294.082 132.597H291.749C291.534 132.597 291.355 132.489 291.247 132.274L280.805 109.667H202.65L191.562 128.506C191.419 128.757 191.096 128.865 190.809 128.685C190.558 128.542 190.45 128.219 190.629 127.932L201.861 108.842C201.969 108.662 202.148 108.59 202.328 108.59H281.164C281.379 108.59 281.558 108.698 281.666 108.913L292.108 131.52H293.257L282.276 107.191C282.169 106.904 282.276 106.617 282.563 106.473C282.85 106.366 283.137 106.473 283.281 106.76L294.62 131.843C294.692 132.022 294.692 132.202 294.584 132.345C294.477 132.489 294.261 132.597 294.082 132.597Z" fill="#4B5364"/>
<path d="M284.716 117.884H197.555C197.268 117.884 197.017 117.633 197.017 117.346C197.017 117.059 197.268 116.808 197.555 116.808H284.716C285.003 116.808 285.254 117.059 285.254 117.346C285.254 117.633 285.003 117.884 284.716 117.884Z" fill="#4B5364"/>
<path d="M294.082 148.134C293.938 148.134 293.795 148.062 293.687 147.991L288.34 142.572C288.233 142.465 288.197 142.321 288.197 142.178V129.439L286.367 128.111C286.295 128.039 286.223 127.968 286.187 127.896L282.456 118.925C282.42 118.853 282.42 118.781 282.42 118.71V117.597C282.42 117.31 282.671 117.059 282.958 117.059C283.245 117.059 283.496 117.31 283.496 117.597V118.602L287.156 127.358L289.094 128.757C289.238 128.865 289.309 129.008 289.309 129.188V141.962L293.58 146.304V132.094C293.58 131.807 293.831 131.556 294.118 131.556C294.405 131.556 294.656 131.807 294.656 132.094V147.596C294.656 147.811 294.512 148.027 294.333 148.098C294.19 148.134 294.118 148.134 294.082 148.134Z" fill="#4B5364"/>
<path d="M281.63 131.843C281.523 131.843 281.451 131.771 281.451 131.664V122.442L280.231 118.997C280.231 118.997 280.231 118.961 280.231 118.925V117.597C280.231 117.49 280.303 117.418 280.41 117.418C280.518 117.418 280.59 117.49 280.59 117.597V118.889L281.81 122.334C281.81 122.334 281.81 122.37 281.81 122.406V131.664C281.774 131.771 281.702 131.843 281.63 131.843Z" fill="#4B5364"/>
<path d="M282.922 119.104H280.769C280.661 119.104 280.59 119.032 280.59 118.925C280.59 118.817 280.661 118.745 280.769 118.745H282.922C283.03 118.745 283.101 118.817 283.101 118.925C283.101 119.032 283.03 119.104 282.922 119.104Z" fill="#4B5364"/>
<path d="M277.575 121.724C277.54 121.724 277.504 121.724 277.468 121.688L274.741 119.176C274.705 119.14 274.669 119.069 274.705 118.997C274.705 118.925 274.777 118.889 274.812 118.889L276.607 118.53C276.642 118.53 276.714 118.53 276.75 118.566L277.683 119.391C277.719 119.427 277.755 119.463 277.755 119.499V121.544C277.755 121.616 277.719 121.652 277.647 121.688C277.647 121.724 277.611 121.724 277.575 121.724ZM275.207 119.14L277.396 121.186V119.571L276.571 118.817L275.207 119.14Z" fill="#4B5364"/>
<path d="M239.682 148.314C239.539 148.314 239.359 148.242 239.288 148.134L236.202 144.474C236.13 144.366 236.058 144.259 236.058 144.115L235.986 130.479C235.986 130.192 236.238 129.941 236.525 129.941C236.812 129.941 237.063 130.192 237.063 130.479L237.135 143.936L239.144 146.304L239.216 117.454C239.216 117.167 239.467 116.916 239.754 116.916C240.041 116.916 240.292 117.167 240.292 117.454L240.185 147.775C240.185 147.991 240.041 148.206 239.826 148.278C239.79 148.314 239.754 148.314 239.682 148.314Z" fill="#4B5364"/>
<path d="M236.417 130.91H233.295C233.008 130.91 232.757 130.659 232.757 130.372C232.757 130.085 233.008 129.834 233.295 129.834H236.417C236.704 129.834 236.955 130.085 236.955 130.372C236.955 130.659 236.74 130.91 236.417 130.91Z" fill="#4B5364"/>
<path d="M245.495 140.096C245.46 140.096 245.424 140.096 245.388 140.06L239.754 133.96C239.682 133.888 239.682 133.781 239.754 133.709C239.826 133.637 239.934 133.637 240.005 133.709L245.639 139.809C245.711 139.881 245.711 139.989 245.639 140.06C245.567 140.06 245.531 140.096 245.495 140.096Z" fill="#4B5364"/>
<path d="M194.433 126.137H193.321C193.213 126.137 193.141 126.066 193.141 125.958C193.141 125.85 193.213 125.779 193.321 125.779H194.29V123.41C194.29 123.303 194.361 123.231 194.469 123.231C194.577 123.231 194.648 123.303 194.648 123.41V125.922C194.613 126.066 194.541 126.137 194.433 126.137Z" fill="#4B5364"/>
<path d="M236.202 126.03H233.223C233.116 126.03 233.044 125.958 233.044 125.85V123.123C233.044 123.052 233.08 123.016 233.152 122.98C233.223 122.944 233.295 122.98 233.331 123.016L236.309 125.743C236.345 125.779 236.381 125.85 236.345 125.922C236.345 125.994 236.273 126.03 236.202 126.03ZM233.367 125.707H235.771L233.367 123.518V125.707Z" fill="#4B5364"/>
<path d="M76.0891 137.584C75.9815 137.584 75.9097 137.513 75.9097 137.405L75.7662 124.666C74.905 118.315 72.7878 112.286 69.5224 106.76C69.4866 106.689 69.4866 106.581 69.5942 106.545C69.666 106.509 69.7736 106.509 69.8095 106.617C73.1108 112.179 75.192 118.279 76.0891 124.666L76.2327 137.405C76.2685 137.513 76.1968 137.584 76.0891 137.584Z" fill="#4B5364"/>
<path d="M89.5455 124.81H80.6104C80.5028 124.81 80.431 124.738 80.431 124.63C80.431 124.523 80.5028 124.451 80.6104 124.451H89.5455C89.6531 124.451 89.7249 124.523 89.7249 124.63C89.7249 124.738 89.6172 124.81 89.5455 124.81Z" fill="#4B5364"/>
<path d="M86.8901 128.291C86.7825 128.291 86.7107 128.219 86.7107 128.111V124.451C86.7107 124.343 86.7825 124.272 86.8901 124.272C86.9978 124.272 87.0695 124.343 87.0695 124.451V128.111C87.0695 128.219 86.9978 128.291 86.8901 128.291Z" fill="#4B5364"/>
<path d="M191.742 119.032C191.706 119.032 191.67 119.032 191.634 118.997C191.562 118.961 191.527 118.853 191.562 118.745L198.631 106.724C198.667 106.653 198.775 106.617 198.883 106.653C198.954 106.689 198.99 106.796 198.954 106.904L191.921 118.961C191.885 118.997 191.814 119.032 191.742 119.032Z" fill="#4B5364"/>
<path d="M281.63 122.585H276.75C276.642 122.585 276.571 122.513 276.571 122.406C276.571 122.298 276.642 122.226 276.75 122.226H281.63C281.738 122.226 281.81 122.298 281.81 122.406C281.81 122.513 281.702 122.585 281.63 122.585Z" fill="#4B5364"/>
</g>
<defs>
<clipPath id="clip0_1379_795">
<rect width="360" height="197" fill="white" transform="translate(0.5 1.52588e-05)"/>
</clipPath>
</defs>
</svg>
